Determining localhost credentials from /etc/mysql/debian.cnf: succeeded.
granting access to database phpmyadmin for phpmyadmin@localhost: success.
verifying access for phpmyadmin@localhost: success.
creating database phpmyadmin: success.
verifying database phpmyadmin exists: success.
populating database via sql...  done.
Determining localhost credentials from /etc/mysql/debian.cnf: succeeded.
Determining localhost credentials from /etc/mysql/debian.cnf: succeeded.
ERROR 1045 (28000): Access denied for user 'root'@'localhost' (using password: YES).
unable to connect to mysql server.
Determining localhost credentials from /etc/mysql/debian.cnf: succeeded.
mysql: [Warning] mysql: Empty value for 'port' specified. Will throw an error in future versions
ERROR 1045 (28000): Access denied for user 'root'@'localhost' (using password: YES).
unable to connect to mysql server.
Determining localhost credentials from /etc/mysql/debian.cnf: succeeded.
dbconfig-common: dumping mysql database phpmyadmin to /var/tmp/phpmyadmin.phpmyadmin.2016-10-13-20.30.mysql.CTZiUj.
dbconfig-common: dropping mysql database phpmyadmin.
dropping database phpmyadmin: success.
verifying database phpmyadmin was dropped: success.
dbconfig-common: revoking privileges for user phpmyadmin on phpmyadmin.
revoking access to database phpmyadmin from phpmyadmin@localhost: success.
Determining localhost credentials from /etc/mysql/debian.cnf: succeeded.
Determining localhost credentials from /etc/mysql/debian.cnf: succeeded.
granting access to database phpmyadmin for phpmyadmin@localhost: success.
verifying access for phpmyadmin@localhost: success.
creating database phpmyadmin: success.
verifying database phpmyadmin exists: success.
populating database via sql...  done.
Determining localhost credentials from /etc/mysql/debian.cnf: succeeded.
dbconfig-common: dumping mysql database phpmyadmin to /var/tmp/phpmyadmin.phpmyadmin.2016-10-13-20.34.mysql.EggAzl.
dbconfig-common: dropping mysql database phpmyadmin.
dropping database phpmyadmin: success.
verifying database phpmyadmin was dropped: success.
dbconfig-common: revoking privileges for user phpmyadmin on phpmyadmin.
revoking access to database phpmyadmin from phpmyadmin@localhost: success.
Determining localhost credentials from /etc/mysql/debian.cnf: succeeded.
Determining localhost credentials from /etc/mysql/debian.cnf: succeeded.
granting access to database phpmyadmin for phpmyadmin@localhost: success.
verifying access for phpmyadmin@localhost: success.
creating database phpmyadmin: success.
verifying database phpmyadmin exists: success.
populating database via sql...  done.
