Content-Type: multipart/mixed; boundary="===============2155552721546859829=="
MIME-Version: 1.0
Number-Attachments: 1

--===============2155552721546859829==
MIME-Version: 1.0
Content-Type: text/x-not-multipart
Content-Disposition: attachment; filename="part-001"


--===============2155552721546859829==--
