Content-Type: multipart/mixed; boundary="===============0332184770728658082=="
MIME-Version: 1.0
Number-Attachments: 1

--===============0332184770728658082==
MIME-Version: 1.0
Content-Type: text/x-not-multipart
Content-Disposition: attachment; filename="part-001"


--===============0332184770728658082==--
