update-alternatives 2016-10-05 17:24:17: run with --install /lib/plymouth/themes/text.plymouth text.plymouth /lib/plymouth/themes/ubuntu-text/ubuntu-text.plymouth 50
update-alternatives 2016-10-05 17:24:22: run with --install /lib/plymouth/themes/text.plymouth text.plymouth /lib/plymouth/themes/ubuntu-text/ubuntu-text.plymouth 50
update-alternatives 2016-10-05 17:24:36: run with --quiet --remove rlogin /usr/bin/ssh
update-alternatives 2016-10-05 17:24:36: run with --quiet --remove rcp /usr/bin/ssh
update-alternatives 2016-10-05 17:28:19: run with --install /lib/plymouth/themes/text.plymouth text.plymouth /lib/plymouth/themes/ubuntu-text/ubuntu-text.plymouth 50
update-alternatives 2016-10-05 17:28:23: run with --install /lib/plymouth/themes/text.plymouth text.plymouth /lib/plymouth/themes/ubuntu-text/ubuntu-text.plymouth 50
update-alternatives 2016-10-05 17:28:43: run with --install /usr/bin/pager pager /bin/more 50 --slave /usr/share/man/man1/pager.1.gz pager.1.gz /usr/share/man/man1/more.1.gz
update-alternatives 2016-10-05 17:28:43: run with --install /usr/bin/pager pager /usr/bin/pg 10 --slave /usr/share/man/man1/pager.1.gz pager.1.gz /usr/share/man/man1/pg.1.gz
update-alternatives 2016-10-05 17:29:14: run with --remove builtins.7.gz /usr/share/man/man7/bash-builtins.7.gz
update-alternatives 2016-10-05 17:29:14: link group builtins.7.gz fully removed
update-alternatives 2016-10-05 17:29:14: run with --install /usr/share/man/man7/builtins.7.gz builtins.7.gz /usr/share/man/man7/bash-builtins.7.gz 10
update-alternatives 2016-10-05 17:29:14: link group builtins.7.gz updated to point to /usr/share/man/man7/bash-builtins.7.gz
update-alternatives 2016-10-05 17:29:17: run with --install /usr/sbin/rmt rmt /usr/sbin/rmt-tar 50 --slave /usr/share/man/man8/rmt.8.gz rmt.8.gz /usr/share/man/man8/rmt-tar.8.gz
update-alternatives 2016-10-05 17:29:18: run with --remove aptitude /usr/bin/aptitude-curses
update-alternatives 2016-10-05 17:29:18: link group aptitude fully removed
update-alternatives 2016-10-05 17:30:26: run with --install /bin/mt mt /bin/mt-gnu 10 --slave /usr/share/man/man1/mt.1.gz mt.1.gz /usr/share/man/man1/mt-gnu.1.gz
update-alternatives 2016-10-05 17:30:27: run with --install /usr/bin/w w /usr/bin/w.procps 50 --slave /usr/share/man/man1/w.1.gz w.1.gz /usr/share/man/man1/w.procps.1.gz
update-alternatives 2016-10-05 17:30:30: run with --remove view /usr/bin/see
update-alternatives 2016-10-05 17:30:32: run with --install /usr/bin/rename rename /usr/bin/prename 60 --slave /usr/share/man/man1/rename.1.gz rename.1.gz /usr/share/man/man1/prename.1.gz
update-alternatives 2016-10-05 17:30:35: run with --install /etc/newt/palette newt-palette /etc/newt/palette.ubuntu 50
update-alternatives 2016-10-05 17:30:35: run with --install /etc/newt/palette newt-palette /etc/newt/palette.original 20
update-alternatives 2016-10-05 17:30:38: run with --install /usr/bin/write write /usr/bin/bsd-write 100 --slave /usr/share/man/man1/write.1.gz write.1.gz /usr/share/man/man1/bsd-write.1.gz
update-alternatives 2016-10-05 17:30:38: run with --install /usr/bin/from from /usr/bin/bsd-from 10 --slave /usr/share/man/man1/from.1.gz from.1.gz /usr/share/man/man1/bsd-from.1.gz
update-alternatives 2016-10-05 17:30:44: run with --quiet --install /usr/bin/awk awk /usr/bin/gawk 10 --slave /usr/share/man/man1/awk.1.gz awk.1.gz /usr/share/man/man1/gawk.1.gz --slave /usr/bin/nawk nawk /usr/bin/gawk --slave /usr/share/man/man1/nawk.1.gz nawk.1.gz /usr/share/man/man1/gawk.1.gz
update-alternatives 2016-10-05 17:30:46: run with --quiet --install /usr/bin/pager pager /bin/less 77 --slave /usr/share/man/man1/pager.1.gz pager.1.gz /usr/share/man/man1/less.1.gz
update-alternatives 2016-10-05 17:30:46: run with --quiet --remove pager /usr/bin/less
update-alternatives 2016-10-05 17:30:46: run with --quiet --install /usr/bin/pager pager /bin/less 77 --slave /usr/share/man/man1/pager.1.gz pager.1.gz /usr/share/man/man1/less.1.gz
update-alternatives 2016-10-05 17:30:46: run with --quiet --remove pager /usr/bin/less
update-alternatives 2016-10-05 17:30:47: run with --install /usr/bin/vim vim /usr/bin/vim.basic 30
update-alternatives 2016-10-05 17:30:47: run with --install /usr/bin/vimdiff vimdiff /usr/bin/vim.basic 30
update-alternatives 2016-10-05 17:30:47: run with --install /usr/bin/rvim rvim /usr/bin/vim.basic 30
update-alternatives 2016-10-05 17:30:47: run with --install /usr/bin/rview rview /usr/bin/vim.basic 30
update-alternatives 2016-10-05 17:30:47: run with --install /usr/bin/vi vi /usr/bin/vim.basic 30 --slave /usr/share/man/fr/man1/vi.1.gz vi.fr.1.gz /usr/share/man/fr/man1/vim.1.gz --slave /usr/share/man/it/man1/vi.1.gz vi.it.1.gz /usr/share/man/it/man1/vim.1.gz --slave /usr/share/man/pl/man1/vi.1.gz vi.pl.1.gz /usr/share/man/pl/man1/vim.1.gz --slave /usr/share/man/ru/man1/vi.1.gz vi.ru.1.gz /usr/share/man/ru/man1/vim.1.gz --slave /usr/share/man/ja/man1/vi.1.gz vi.ja.1.gz /usr/share/man/ja/man1/vim.1.gz --slave /usr/share/man/man1/vi.1.gz vi.1.gz /usr/share/man/man1/vim.1.gz
update-alternatives 2016-10-05 17:30:47: run with --install /usr/bin/view view /usr/bin/vim.basic 30 --slave /usr/share/man/fr/man1/view.1.gz view.fr.1.gz /usr/share/man/fr/man1/vim.1.gz --slave /usr/share/man/it/man1/view.1.gz view.it.1.gz /usr/share/man/it/man1/vim.1.gz --slave /usr/share/man/pl/man1/view.1.gz view.pl.1.gz /usr/share/man/pl/man1/vim.1.gz --slave /usr/share/man/ru/man1/view.1.gz view.ru.1.gz /usr/share/man/ru/man1/vim.1.gz --slave /usr/share/man/ja/man1/view.1.gz view.ja.1.gz /usr/share/man/ja/man1/vim.1.gz --slave /usr/share/man/man1/view.1.gz view.1.gz /usr/share/man/man1/vim.1.gz
update-alternatives 2016-10-05 17:30:47: run with --install /usr/bin/ex ex /usr/bin/vim.basic 30 --slave /usr/share/man/fr/man1/ex.1.gz ex.fr.1.gz /usr/share/man/fr/man1/vim.1.gz --slave /usr/share/man/it/man1/ex.1.gz ex.it.1.gz /usr/share/man/it/man1/vim.1.gz --slave /usr/share/man/pl/man1/ex.1.gz ex.pl.1.gz /usr/share/man/pl/man1/vim.1.gz --slave /usr/share/man/ru/man1/ex.1.gz ex.ru.1.gz /usr/share/man/ru/man1/vim.1.gz --slave /usr/share/man/ja/man1/ex.1.gz ex.ja.1.gz /usr/share/man/ja/man1/vim.1.gz --slave /usr/share/man/man1/ex.1.gz ex.1.gz /usr/share/man/man1/vim.1.gz
update-alternatives 2016-10-05 17:30:47: run with --install /usr/bin/editor editor /usr/bin/vim.basic 30 --slave /usr/share/man/fr/man1/editor.1.gz editor.fr.1.gz /usr/share/man/fr/man1/vim.1.gz --slave /usr/share/man/it/man1/editor.1.gz editor.it.1.gz /usr/share/man/it/man1/vim.1.gz --slave /usr/share/man/pl/man1/editor.1.gz editor.pl.1.gz /usr/share/man/pl/man1/vim.1.gz --slave /usr/share/man/ru/man1/editor.1.gz editor.ru.1.gz /usr/share/man/ru/man1/vim.1.gz --slave /usr/share/man/ja/man1/editor.1.gz editor.ja.1.gz /usr/share/man/ja/man1/vim.1.gz --slave /usr/share/man/man1/editor.1.gz editor.1.gz /usr/share/man/man1/vim.1.gz
update-alternatives 2016-10-05 17:30:47: run with --install /usr/bin/rview rview /usr/bin/vim.tiny 10
update-alternatives 2016-10-05 17:30:47: run with --install /usr/bin/vi vi /usr/bin/vim.tiny 10 --slave /usr/share/man/fr/man1/vi.1.gz vi.fr.1.gz /usr/share/man/fr/man1/vim.1.gz --slave /usr/share/man/it/man1/vi.1.gz vi.it.1.gz /usr/share/man/it/man1/vim.1.gz --slave /usr/share/man/pl/man1/vi.1.gz vi.pl.1.gz /usr/share/man/pl/man1/vim.1.gz --slave /usr/share/man/ru/man1/vi.1.gz vi.ru.1.gz /usr/share/man/ru/man1/vim.1.gz --slave /usr/share/man/ja/man1/vi.1.gz vi.ja.1.gz /usr/share/man/ja/man1/vim.1.gz --slave /usr/share/man/man1/vi.1.gz vi.1.gz /usr/share/man/man1/vim.1.gz
update-alternatives 2016-10-05 17:30:47: run with --install /usr/bin/view view /usr/bin/vim.tiny 10 --slave /usr/share/man/fr/man1/view.1.gz view.fr.1.gz /usr/share/man/fr/man1/vim.1.gz --slave /usr/share/man/it/man1/view.1.gz view.it.1.gz /usr/share/man/it/man1/vim.1.gz --slave /usr/share/man/pl/man1/view.1.gz view.pl.1.gz /usr/share/man/pl/man1/vim.1.gz --slave /usr/share/man/ru/man1/view.1.gz view.ru.1.gz /usr/share/man/ru/man1/vim.1.gz --slave /usr/share/man/ja/man1/view.1.gz view.ja.1.gz /usr/share/man/ja/man1/vim.1.gz --slave /usr/share/man/man1/view.1.gz view.1.gz /usr/share/man/man1/vim.1.gz
update-alternatives 2016-10-05 17:30:47: run with --install /usr/bin/ex ex /usr/bin/vim.tiny 10 --slave /usr/share/man/fr/man1/ex.1.gz ex.fr.1.gz /usr/share/man/fr/man1/vim.1.gz --slave /usr/share/man/it/man1/ex.1.gz ex.it.1.gz /usr/share/man/it/man1/vim.1.gz --slave /usr/share/man/pl/man1/ex.1.gz ex.pl.1.gz /usr/share/man/pl/man1/vim.1.gz --slave /usr/share/man/ru/man1/ex.1.gz ex.ru.1.gz /usr/share/man/ru/man1/vim.1.gz --slave /usr/share/man/ja/man1/ex.1.gz ex.ja.1.gz /usr/share/man/ja/man1/vim.1.gz --slave /usr/share/man/man1/ex.1.gz ex.1.gz /usr/share/man/man1/vim.1.gz
update-alternatives 2016-10-05 17:30:47: run with --install /usr/bin/editor editor /usr/bin/vim.tiny 10 --slave /usr/share/man/fr/man1/editor.1.gz editor.fr.1.gz /usr/share/man/fr/man1/vim.1.gz --slave /usr/share/man/it/man1/editor.1.gz editor.it.1.gz /usr/share/man/it/man1/vim.1.gz --slave /usr/share/man/pl/man1/editor.1.gz editor.pl.1.gz /usr/share/man/pl/man1/vim.1.gz --slave /usr/share/man/ru/man1/editor.1.gz editor.ru.1.gz /usr/share/man/ru/man1/vim.1.gz --slave /usr/share/man/ja/man1/editor.1.gz editor.ja.1.gz /usr/share/man/ja/man1/vim.1.gz --slave /usr/share/man/man1/editor.1.gz editor.1.gz /usr/share/man/man1/vim.1.gz
update-alternatives 2016-10-05 17:30:49: run with --quiet --install /usr/bin/editor editor /bin/ed -100 --slave /usr/share/man/man1/editor.1.gz editor.1.gz /usr/share/man/man1/ed.1.gz
update-alternatives 2016-10-05 17:30:49: run with --install /usr/bin/ftp ftp /usr/bin/netkit-ftp 100 --slave /usr/bin/pftp pftp /usr/bin/netkit-ftp --slave /usr/share/man/man1/ftp.1.gz ftp.1.gz /usr/share/man/man1/netkit-ftp.1.gz --slave /usr/share/man/man1/pftp.1.gz pftp.1.gz /usr/share/man/man1/netkit-ftp.1.gz --slave /usr/share/man/man5/netrc.5.gz netrc.5.gz /usr/share/man/man5/netkit-netrc.5.gz
update-alternatives 2016-10-05 17:30:49: link group ftp updated with changed slaves
update-alternatives 2016-10-05 17:30:49: run with --install /usr/bin/infobrowser infobrowser /usr/bin/info 60 --slave /usr/share/man/man1/infobrowser.1.gz infobrowser.1.gz /usr/share/man/man1/info.1.gz
update-alternatives 2016-10-05 17:30:49: run with --install /usr/bin/traceroute6 traceroute6 /usr/bin/traceroute6.iputils 100 --slave /usr/share/man/man8/traceroute6.8.gz traceroute6.8.gz /usr/share/man/man8/traceroute6.iputils.8.gz
update-alternatives 2016-10-05 17:30:49: run with --install /usr/bin/locate locate /usr/bin/mlocate 80 --slave /usr/share/man/man1/locate.1.gz locate.1.gz /usr/share/man/man1/mlocate.1.gz --slave /usr/bin/updatedb updatedb /usr/bin/updatedb.mlocate
update-alternatives 2016-10-05 17:30:49: run with --install /usr/bin/editor editor /bin/nano 40 --slave /usr/share/man/man1/editor.1.gz editor.1.gz /usr/share/man/man1/nano.1.gz
update-alternatives 2016-10-05 17:30:49: run with --install /usr/bin/pico pico /bin/nano 10 --slave /usr/share/man/man1/pico.1.gz pico.1.gz /usr/share/man/man1/nano.1.gz
update-alternatives 2016-10-05 17:30:49: run with --quiet --remove rlogin /usr/bin/ssh
update-alternatives 2016-10-05 17:30:49: run with --quiet --remove rcp /usr/bin/ssh
update-alternatives 2016-10-05 17:30:52: run with --install /usr/bin/telnet telnet /usr/bin/telnet.netkit 100 --slave /usr/share/man/man1/telnet.1.gz telnet.1.gz /usr/share/man/man1/telnet.netkit.1.gz
update-alternatives 2016-10-05 17:31:28: run with --install /usr/bin/jsonpointer jsonpointer /usr/bin/python2-jsonpointer 300
update-alternatives 2016-10-05 17:31:28: link group jsonpointer updated to point to /usr/bin/python2-jsonpointer
update-alternatives 2016-10-05 17:31:28: run with --install /usr/bin/jsondiff jsondiff /usr/bin/python2-jsondiff 300
update-alternatives 2016-10-05 17:31:28: run with --install /usr/bin/jsonpatch jsonpatch /usr/bin/python2-jsonpatch 300
update-alternatives 2016-10-05 17:31:29: run with --install /usr/bin/rename rename /usr/bin/file-rename 70 --slave /usr/share/man/man1/rename.1.gz rename.1.gz /usr/share/man/man1/file-rename.1p.gz
update-alternatives 2016-10-05 17:31:29: link group rename updated to point to /usr/bin/file-rename
update-alternatives 2016-10-05 17:31:30: run with --quiet --install /usr/bin/pager pager /usr/bin/w3m 25 --slave /usr/share/man/man1/pager.1.gz pager.1.gz /usr/share/man/man1/w3m.1.gz
update-alternatives 2016-10-05 17:31:30: run with --quiet --install /usr/bin/www-browser www-browser /usr/bin/w3m 25 --slave /usr/share/man/man1/www-browser.1.gz www-browser.1.gz /usr/share/man/man1/w3m.1.gz
update-alternatives 2016-10-05 17:31:30: run with --install /etc/vtrgb vtrgb /etc/console-setup/vtrgb 50
update-alternatives 2016-10-05 17:31:30: run with --install /etc/vtrgb vtrgb /etc/console-setup/vtrgb.vga 20
update-alternatives 2016-10-05 17:31:34: run with --install /usr/share/plymouth/themes/text.plymouth text.plymouth /usr/share/plymouth/themes/ubuntu-text/ubuntu-text.plymouth 50
update-alternatives 2016-10-05 17:31:34: link group text.plymouth updated to point to /usr/share/plymouth/themes/ubuntu-text/ubuntu-text.plymouth
update-alternatives 2016-10-05 17:31:57: run with --install /usr/bin/jsonpointer jsonpointer /usr/bin/python3-jsonpointer 200
update-alternatives 2016-10-05 17:31:57: run with --install /usr/bin/jsondiff jsondiff /usr/bin/python3-jsondiff 200
update-alternatives 2016-10-05 17:31:57: run with --install /usr/bin/jsonpatch jsonpatch /usr/bin/python3-jsonpatch 200
update-alternatives 2016-10-05 17:36:17: run with --install /usr/bin/php php /usr/bin/php7.0 70 --slave /usr/share/man/man1/php.1.gz php.1.gz /usr/share/man/man1/php7.0.1.gz
update-alternatives 2016-10-05 17:36:17: link group php updated to point to /usr/bin/php7.0
update-alternatives 2016-10-05 17:36:17: run with --install /usr/bin/phar phar /usr/bin/phar7.0 70 --slave /usr/share/man/man1/phar.1.gz phar.1.gz /usr/share/man/man1/phar7.0.1.gz
update-alternatives 2016-10-05 17:36:17: link group phar updated to point to /usr/bin/phar7.0
update-alternatives 2016-10-05 17:36:17: run with --install /usr/bin/phar.phar phar.phar /usr/bin/phar.phar7.0 70 --slave /usr/share/man/man1/phar.phar.1.gz phar.phar.1.gz /usr/share/man/man1/phar.phar7.0.1.gz
update-alternatives 2016-10-05 17:36:17: link group phar.phar updated to point to /usr/bin/phar.phar7.0
update-alternatives 2016-10-05 19:28:16: run with --install /usr/bin/www-browser www-browser /usr/bin/lynx 40 --slave /usr/share/man/man1/www-browser.1.gz www-browser.1.gz /usr/share/man/man1/lynx.1.gz
update-alternatives 2016-10-05 19:28:16: link group www-browser updated to point to /usr/bin/lynx
update-alternatives 2016-10-10 20:57:27: run with --install /usr/sbin/sendmail-mta sendmail-mta /usr/lib/sm.bin/sendmail 25 --slave /usr/share/man/man8/sendmail-mta.8.gz sendmail-mta.8.gz /usr/share/man/man8/sendmail.sendmail.8.gz --slave /usr/sbin/runq runq /usr/share/sendmail/runq --slave /usr/share/man/man8/runq.8.gz runq.8.gz /usr/share/man/man8/runq.sendmail.8.gz --slave /usr/sbin/newaliases newaliases /usr/share/sendmail/newaliases --slave /usr/share/man/man8/newaliases.8.gz newaliases.8.gz /usr/share/man/man8/newaliases.sendmail.8.gz --slave /usr/bin/mailq mailq /usr/share/sendmail/mailq --slave /usr/share/man/man1/mailq.1.gz mailq.1.gz /usr/share/man/man1/mailq.sendmail.1.gz --slave /usr/share/man/man5/aliases.5.gz aliases.5.gz /usr/share/man/man5/aliases.sendmail.5.gz
update-alternatives 2016-10-10 20:57:27: link group sendmail-mta updated to point to /usr/lib/sm.bin/sendmail
update-alternatives 2016-10-10 20:57:27: run with --install /usr/sbin/sendmail-msp sendmail-msp /usr/lib/sm.bin/sendmail 25 --slave /usr/share/man/man8/sendmail-msp.8.gz sendmail-msp.8.gz /usr/share/man/man8/sendmail.sendmail.8.gz --slave /usr/sbin/sendmail sendmail /usr/lib/sm.bin/sendmail --slave /usr/lib/sendmail lib.sendmail /usr/lib/sm.bin/sendmail --slave /usr/share/man/man8/sendmail.8.gz sendmail.8.gz /usr/share/man/man8/sendmail.sendmail.8.gz
update-alternatives 2016-10-10 20:57:27: link group sendmail-msp updated to point to /usr/lib/sm.bin/sendmail
update-alternatives 2016-10-10 20:57:30: run with --install /etc/mysql/my.cnf my.cnf /etc/mysql/my.cnf.fallback 100
update-alternatives 2016-10-10 20:57:30: link group my.cnf updated to point to /etc/mysql/my.cnf.fallback
update-alternatives 2016-10-10 20:57:30: run with --install /usr/bin/frm frm /usr/bin/frm.mailutils 20 --slave /usr/share/man/man1/frm.1.gz frm.1.gz /usr/share/man/man1/frm.mailutils.1.gz
update-alternatives 2016-10-10 20:57:30: link group frm updated to point to /usr/bin/frm.mailutils
update-alternatives 2016-10-10 20:57:30: run with --install /usr/bin/from from /usr/bin/from.mailutils 20 --slave /usr/share/man/man1/from.1.gz from.1.gz /usr/share/man/man1/from.mailutils.1.gz
update-alternatives 2016-10-10 20:57:30: link group from updated to point to /usr/bin/from.mailutils
update-alternatives 2016-10-10 20:57:30: run with --install /usr/bin/messages messages /usr/bin/messages.mailutils 20 --slave /usr/share/man/man1/messages.1.gz messages.1.gz /usr/share/man/man1/messages.mailutils.1.gz
update-alternatives 2016-10-10 20:57:30: link group messages updated to point to /usr/bin/messages.mailutils
update-alternatives 2016-10-10 20:57:30: run with --install /usr/bin/movemail movemail /usr/bin/movemail.mailutils 20 --slave /usr/share/man/man1/movemail.1.gz movemail.1.gz /usr/share/man/man1/movemail.mailutils.1.gz
update-alternatives 2016-10-10 20:57:30: link group movemail updated to point to /usr/bin/movemail.mailutils
update-alternatives 2016-10-10 20:57:30: run with --install /usr/bin/readmsg readmsg /usr/bin/readmsg.mailutils 20 --slave /usr/share/man/man1/readmsg.1.gz readmsg.1.gz /usr/share/man/man1/readmsg.mailutils.1.gz
update-alternatives 2016-10-10 20:57:30: link group readmsg updated to point to /usr/bin/readmsg.mailutils
update-alternatives 2016-10-10 20:57:30: run with --install /usr/bin/dotlock dotlock /usr/bin/dotlock.mailutils 4 --slave /usr/share/man/man1/dotlock.1.gz dotlock.1.gz /usr/share/man/man1/dotlock.mailutils.1.gz
update-alternatives 2016-10-10 20:57:30: link group dotlock updated to point to /usr/bin/dotlock.mailutils
update-alternatives 2016-10-10 20:57:30: run with --install /usr/bin/mailx mailx /usr/bin/mail.mailutils 30 --slave /usr/share/man/man1/mailx.1.gz mailx.1.gz /usr/share/man/man1/mail.mailutils.1.gz --slave /usr/bin/mail mail /usr/bin/mail.mailutils --slave /usr/share/man/man1/mail.1.gz mail.1.gz /usr/share/man/man1/mail.mailutils.1.gz
update-alternatives 2016-10-10 20:57:30: link group mailx updated to point to /usr/bin/mail.mailutils
update-alternatives 2016-10-13 20:15:39: run with --install /etc/mysql/my.cnf my.cnf /etc/mysql/mysql.cnf 200
update-alternatives 2016-10-13 20:15:39: link group my.cnf updated to point to /etc/mysql/mysql.cnf
update-alternatives 2016-10-13 20:34:11: run with --remove php /usr/bin/php7.0
update-alternatives 2016-10-13 20:34:11: link group php fully removed
update-alternatives 2016-10-13 20:34:11: run with --remove phar /usr/bin/phar7.0
update-alternatives 2016-10-13 20:34:11: link group phar fully removed
update-alternatives 2016-10-13 20:34:11: run with --remove phar.phar /usr/bin/phar.phar7.0
update-alternatives 2016-10-13 20:34:11: link group phar.phar fully removed
update-alternatives 2016-10-13 20:34:42: run with --install /usr/bin/php php /usr/bin/php7.0 70 --slave /usr/share/man/man1/php.1.gz php.1.gz /usr/share/man/man1/php7.0.1.gz
update-alternatives 2016-10-13 20:34:42: link group php updated to point to /usr/bin/php7.0
update-alternatives 2016-10-13 20:34:42: run with --install /usr/bin/phar phar /usr/bin/phar7.0 70 --slave /usr/share/man/man1/phar.1.gz phar.1.gz /usr/share/man/man1/phar7.0.1.gz
update-alternatives 2016-10-13 20:34:42: link group phar updated to point to /usr/bin/phar7.0
update-alternatives 2016-10-13 20:34:42: run with --install /usr/bin/phar.phar phar.phar /usr/bin/phar.phar7.0 70 --slave /usr/share/man/man1/phar.phar.1.gz phar.phar.1.gz /usr/share/man/man1/phar.phar7.0.1.gz
update-alternatives 2016-10-13 20:34:42: link group phar.phar updated to point to /usr/bin/phar.phar7.0
update-alternatives 2016-10-19 18:57:38: run with --install /usr/bin/rmid rmid /usr/lib/jvm/java-8-openjdk-amd64/jre/bin/rmid 1081 --slave /usr/share/man/man1/rmid.1.gz rmid.1.gz /usr/lib/jvm/java-8-openjdk-amd64/jre/man/man1/rmid.1.gz
update-alternatives 2016-10-19 18:57:38: link group rmid updated to point to /usr/lib/jvm/java-8-openjdk-amd64/jre/bin/rmid
update-alternatives 2016-10-19 18:57:38: run with --install /usr/bin/java java /usr/lib/jvm/java-8-openjdk-amd64/jre/bin/java 1081 --slave /usr/share/man/man1/java.1.gz java.1.gz /usr/lib/jvm/java-8-openjdk-amd64/jre/man/man1/java.1.gz
update-alternatives 2016-10-19 18:57:38: link group java updated to point to /usr/lib/jvm/java-8-openjdk-amd64/jre/bin/java
update-alternatives 2016-10-19 18:57:38: run with --install /usr/bin/keytool keytool /usr/lib/jvm/java-8-openjdk-amd64/jre/bin/keytool 1081 --slave /usr/share/man/man1/keytool.1.gz keytool.1.gz /usr/lib/jvm/java-8-openjdk-amd64/jre/man/man1/keytool.1.gz
update-alternatives 2016-10-19 18:57:38: link group keytool updated to point to /usr/lib/jvm/java-8-openjdk-amd64/jre/bin/keytool
update-alternatives 2016-10-19 18:57:38: run with --install /usr/bin/jjs jjs /usr/lib/jvm/java-8-openjdk-amd64/jre/bin/jjs 1081 --slave /usr/share/man/man1/jjs.1.gz jjs.1.gz /usr/lib/jvm/java-8-openjdk-amd64/jre/man/man1/jjs.1.gz
update-alternatives 2016-10-19 18:57:38: link group jjs updated to point to /usr/lib/jvm/java-8-openjdk-amd64/jre/bin/jjs
update-alternatives 2016-10-19 18:57:38: run with --install /usr/bin/pack200 pack200 /usr/lib/jvm/java-8-openjdk-amd64/jre/bin/pack200 1081 --slave /usr/share/man/man1/pack200.1.gz pack200.1.gz /usr/lib/jvm/java-8-openjdk-amd64/jre/man/man1/pack200.1.gz
update-alternatives 2016-10-19 18:57:38: link group pack200 updated to point to /usr/lib/jvm/java-8-openjdk-amd64/jre/bin/pack200
update-alternatives 2016-10-19 18:57:38: run with --install /usr/bin/rmiregistry rmiregistry /usr/lib/jvm/java-8-openjdk-amd64/jre/bin/rmiregistry 1081 --slave /usr/share/man/man1/rmiregistry.1.gz rmiregistry.1.gz /usr/lib/jvm/java-8-openjdk-amd64/jre/man/man1/rmiregistry.1.gz
update-alternatives 2016-10-19 18:57:38: link group rmiregistry updated to point to /usr/lib/jvm/java-8-openjdk-amd64/jre/bin/rmiregistry
update-alternatives 2016-10-19 18:57:38: run with --install /usr/bin/unpack200 unpack200 /usr/lib/jvm/java-8-openjdk-amd64/jre/bin/unpack200 1081 --slave /usr/share/man/man1/unpack200.1.gz unpack200.1.gz /usr/lib/jvm/java-8-openjdk-amd64/jre/man/man1/unpack200.1.gz
update-alternatives 2016-10-19 18:57:38: link group unpack200 updated to point to /usr/lib/jvm/java-8-openjdk-amd64/jre/bin/unpack200
update-alternatives 2016-10-19 18:57:38: run with --install /usr/bin/orbd orbd /usr/lib/jvm/java-8-openjdk-amd64/jre/bin/orbd 1081 --slave /usr/share/man/man1/orbd.1.gz orbd.1.gz /usr/lib/jvm/java-8-openjdk-amd64/jre/man/man1/orbd.1.gz
update-alternatives 2016-10-19 18:57:38: link group orbd updated to point to /usr/lib/jvm/java-8-openjdk-amd64/jre/bin/orbd
update-alternatives 2016-10-19 18:57:38: run with --install /usr/bin/servertool servertool /usr/lib/jvm/java-8-openjdk-amd64/jre/bin/servertool 1081 --slave /usr/share/man/man1/servertool.1.gz servertool.1.gz /usr/lib/jvm/java-8-openjdk-amd64/jre/man/man1/servertool.1.gz
update-alternatives 2016-10-19 18:57:38: link group servertool updated to point to /usr/lib/jvm/java-8-openjdk-amd64/jre/bin/servertool
update-alternatives 2016-10-19 18:57:38: run with --install /usr/bin/tnameserv tnameserv /usr/lib/jvm/java-8-openjdk-amd64/jre/bin/tnameserv 1081 --slave /usr/share/man/man1/tnameserv.1.gz tnameserv.1.gz /usr/lib/jvm/java-8-openjdk-amd64/jre/man/man1/tnameserv.1.gz
update-alternatives 2016-10-19 18:57:38: link group tnameserv updated to point to /usr/lib/jvm/java-8-openjdk-amd64/jre/bin/tnameserv
update-alternatives 2016-10-19 18:57:38: run with --install /usr/bin/jexec jexec /usr/lib/jvm/java-8-openjdk-amd64/jre/lib/jexec 1081 --slave /usr/share/binfmts/jar jexec-binfmt /usr/lib/jvm/java-8-openjdk-amd64/jre/lib/jar.binfmt
update-alternatives 2016-10-19 18:57:38: link group jexec updated to point to /usr/lib/jvm/java-8-openjdk-amd64/jre/lib/jexec
update-alternatives 2016-10-19 18:57:41: run with --install /usr/bin/mvn mvn /usr/share/maven/bin/mvn 300 --slave /usr/bin/mvnDebug mvnDebug /usr/share/maven/bin/mvnDebug --slave /usr/share/man/man1/mvn.1.gz mvn.1.gz /usr/share/maven/man/mvn.1.gz --slave /usr/share/man/man1/mvnDebug.1.gz mvnDebug.1.gz /usr/share/maven/man/mvnDebug.1.gz
update-alternatives 2016-10-19 18:57:41: link group mvn updated to point to /usr/share/maven/bin/mvn
update-alternatives 2016-10-19 20:01:04: run with --install /usr/lib/x86_64-linux-gnu/libtxc_dxtn.so libtxc-dxtn-x86_64-linux-gnu /usr/lib/x86_64-linux-gnu/libtxc_dxtn_s2tc.so.0 10
update-alternatives 2016-10-19 20:01:04: link group libtxc-dxtn-x86_64-linux-gnu updated to point to /usr/lib/x86_64-linux-gnu/libtxc_dxtn_s2tc.so.0
update-alternatives 2016-10-19 20:01:05: run with --force --install /etc/ld.so.conf.d/x86_64-linux-gnu_GL.conf x86_64-linux-gnu_gl_conf /usr/lib/x86_64-linux-gnu/mesa/ld.so.conf 500 --slave /usr/lib/x86_64-linux-gnu/xorg/extra-modules x86_64-linux-gnu_xorg_extra_modules /usr/lib/x86_64-linux-gnu/xorg/x11-extra-modules
update-alternatives 2016-10-19 20:01:05: link group x86_64-linux-gnu_gl_conf updated to point to /usr/lib/x86_64-linux-gnu/mesa/ld.so.conf
update-alternatives 2016-10-19 20:01:05: run with --install /usr/bin/policytool policytool /usr/lib/jvm/java-8-openjdk-amd64/jre/bin/policytool 1081 --slave /usr/share/man/man1/policytool.1.gz policytool.1.gz /usr/lib/jvm/java-8-openjdk-amd64/jre/man/man1/policytool.1.gz
update-alternatives 2016-10-19 20:01:05: link group policytool updated to point to /usr/lib/jvm/java-8-openjdk-amd64/jre/bin/policytool
update-alternatives 2016-10-19 20:01:05: run with --install /usr/bin/idlj idlj /usr/lib/jvm/java-8-openjdk-amd64/bin/idlj 1081 --slave /usr/share/man/man1/idlj.1.gz idlj.1.gz /usr/lib/jvm/java-8-openjdk-amd64/man/man1/idlj.1.gz
update-alternatives 2016-10-19 20:01:05: link group idlj updated to point to /usr/lib/jvm/java-8-openjdk-amd64/bin/idlj
update-alternatives 2016-10-19 20:01:05: run with --install /usr/bin/jdeps jdeps /usr/lib/jvm/java-8-openjdk-amd64/bin/jdeps 1081 --slave /usr/share/man/man1/jdeps.1.gz jdeps.1.gz /usr/lib/jvm/java-8-openjdk-amd64/man/man1/jdeps.1.gz
update-alternatives 2016-10-19 20:01:05: link group jdeps updated to point to /usr/lib/jvm/java-8-openjdk-amd64/bin/jdeps
update-alternatives 2016-10-19 20:01:05: run with --install /usr/bin/wsimport wsimport /usr/lib/jvm/java-8-openjdk-amd64/bin/wsimport 1081 --slave /usr/share/man/man1/wsimport.1.gz wsimport.1.gz /usr/lib/jvm/java-8-openjdk-amd64/man/man1/wsimport.1.gz
update-alternatives 2016-10-19 20:01:05: link group wsimport updated to point to /usr/lib/jvm/java-8-openjdk-amd64/bin/wsimport
update-alternatives 2016-10-19 20:01:05: run with --install /usr/bin/rmic rmic /usr/lib/jvm/java-8-openjdk-amd64/bin/rmic 1081 --slave /usr/share/man/man1/rmic.1.gz rmic.1.gz /usr/lib/jvm/java-8-openjdk-amd64/man/man1/rmic.1.gz
update-alternatives 2016-10-19 20:01:05: link group rmic updated to point to /usr/lib/jvm/java-8-openjdk-amd64/bin/rmic
update-alternatives 2016-10-19 20:01:05: run with --install /usr/bin/jinfo jinfo /usr/lib/jvm/java-8-openjdk-amd64/bin/jinfo 1081 --slave /usr/share/man/man1/jinfo.1.gz jinfo.1.gz /usr/lib/jvm/java-8-openjdk-amd64/man/man1/jinfo.1.gz
update-alternatives 2016-10-19 20:01:05: link group jinfo updated to point to /usr/lib/jvm/java-8-openjdk-amd64/bin/jinfo
update-alternatives 2016-10-19 20:01:05: run with --install /usr/bin/jsadebugd jsadebugd /usr/lib/jvm/java-8-openjdk-amd64/bin/jsadebugd 1081 --slave /usr/share/man/man1/jsadebugd.1.gz jsadebugd.1.gz /usr/lib/jvm/java-8-openjdk-amd64/man/man1/jsadebugd.1.gz
update-alternatives 2016-10-19 20:01:05: link group jsadebugd updated to point to /usr/lib/jvm/java-8-openjdk-amd64/bin/jsadebugd
update-alternatives 2016-10-19 20:01:05: run with --install /usr/bin/native2ascii native2ascii /usr/lib/jvm/java-8-openjdk-amd64/bin/native2ascii 1081 --slave /usr/share/man/man1/native2ascii.1.gz native2ascii.1.gz /usr/lib/jvm/java-8-openjdk-amd64/man/man1/native2ascii.1.gz
update-alternatives 2016-10-19 20:01:05: link group native2ascii updated to point to /usr/lib/jvm/java-8-openjdk-amd64/bin/native2ascii
update-alternatives 2016-10-19 20:01:05: run with --install /usr/bin/jstat jstat /usr/lib/jvm/java-8-openjdk-amd64/bin/jstat 1081 --slave /usr/share/man/man1/jstat.1.gz jstat.1.gz /usr/lib/jvm/java-8-openjdk-amd64/man/man1/jstat.1.gz
update-alternatives 2016-10-19 20:01:05: link group jstat updated to point to /usr/lib/jvm/java-8-openjdk-amd64/bin/jstat
update-alternatives 2016-10-19 20:01:05: run with --install /usr/bin/javac javac /usr/lib/jvm/java-8-openjdk-amd64/bin/javac 1081 --slave /usr/share/man/man1/javac.1.gz javac.1.gz /usr/lib/jvm/java-8-openjdk-amd64/man/man1/javac.1.gz
update-alternatives 2016-10-19 20:01:05: link group javac updated to point to /usr/lib/jvm/java-8-openjdk-amd64/bin/javac
update-alternatives 2016-10-19 20:01:05: run with --install /usr/bin/javah javah /usr/lib/jvm/java-8-openjdk-amd64/bin/javah 1081 --slave /usr/share/man/man1/javah.1.gz javah.1.gz /usr/lib/jvm/java-8-openjdk-amd64/man/man1/javah.1.gz
update-alternatives 2016-10-19 20:01:05: link group javah updated to point to /usr/lib/jvm/java-8-openjdk-amd64/bin/javah
update-alternatives 2016-10-19 20:01:05: run with --install /usr/bin/jstack jstack /usr/lib/jvm/java-8-openjdk-amd64/bin/jstack 1081 --slave /usr/share/man/man1/jstack.1.gz jstack.1.gz /usr/lib/jvm/java-8-openjdk-amd64/man/man1/jstack.1.gz
update-alternatives 2016-10-19 20:01:05: link group jstack updated to point to /usr/lib/jvm/java-8-openjdk-amd64/bin/jstack
update-alternatives 2016-10-19 20:01:05: run with --install /usr/bin/jrunscript jrunscript /usr/lib/jvm/java-8-openjdk-amd64/bin/jrunscript 1081 --slave /usr/share/man/man1/jrunscript.1.gz jrunscript.1.gz /usr/lib/jvm/java-8-openjdk-amd64/man/man1/jrunscript.1.gz
update-alternatives 2016-10-19 20:01:05: link group jrunscript updated to point to /usr/lib/jvm/java-8-openjdk-amd64/bin/jrunscript
update-alternatives 2016-10-19 20:01:05: run with --install /usr/bin/javadoc javadoc /usr/lib/jvm/java-8-openjdk-amd64/bin/javadoc 1081 --slave /usr/share/man/man1/javadoc.1.gz javadoc.1.gz /usr/lib/jvm/java-8-openjdk-amd64/man/man1/javadoc.1.gz
update-alternatives 2016-10-19 20:01:05: link group javadoc updated to point to /usr/lib/jvm/java-8-openjdk-amd64/bin/javadoc
update-alternatives 2016-10-19 20:01:05: run with --install /usr/bin/javap javap /usr/lib/jvm/java-8-openjdk-amd64/bin/javap 1081 --slave /usr/share/man/man1/javap.1.gz javap.1.gz /usr/lib/jvm/java-8-openjdk-amd64/man/man1/javap.1.gz
update-alternatives 2016-10-19 20:01:05: link group javap updated to point to /usr/lib/jvm/java-8-openjdk-amd64/bin/javap
update-alternatives 2016-10-19 20:01:05: run with --install /usr/bin/jar jar /usr/lib/jvm/java-8-openjdk-amd64/bin/jar 1081 --slave /usr/share/man/man1/jar.1.gz jar.1.gz /usr/lib/jvm/java-8-openjdk-amd64/man/man1/jar.1.gz
update-alternatives 2016-10-19 20:01:05: link group jar updated to point to /usr/lib/jvm/java-8-openjdk-amd64/bin/jar
update-alternatives 2016-10-19 20:01:05: run with --install /usr/bin/extcheck extcheck /usr/lib/jvm/java-8-openjdk-amd64/bin/extcheck 1081 --slave /usr/share/man/man1/extcheck.1.gz extcheck.1.gz /usr/lib/jvm/java-8-openjdk-amd64/man/man1/extcheck.1.gz
update-alternatives 2016-10-19 20:01:05: link group extcheck updated to point to /usr/lib/jvm/java-8-openjdk-amd64/bin/extcheck
update-alternatives 2016-10-19 20:01:05: run with --install /usr/bin/schemagen schemagen /usr/lib/jvm/java-8-openjdk-amd64/bin/schemagen 1081 --slave /usr/share/man/man1/schemagen.1.gz schemagen.1.gz /usr/lib/jvm/java-8-openjdk-amd64/man/man1/schemagen.1.gz
update-alternatives 2016-10-19 20:01:05: link group schemagen updated to point to /usr/lib/jvm/java-8-openjdk-amd64/bin/schemagen
update-alternatives 2016-10-19 20:01:05: run with --install /usr/bin/jps jps /usr/lib/jvm/java-8-openjdk-amd64/bin/jps 1081 --slave /usr/share/man/man1/jps.1.gz jps.1.gz /usr/lib/jvm/java-8-openjdk-amd64/man/man1/jps.1.gz
update-alternatives 2016-10-19 20:01:05: link group jps updated to point to /usr/lib/jvm/java-8-openjdk-amd64/bin/jps
update-alternatives 2016-10-19 20:01:05: run with --install /usr/bin/xjc xjc /usr/lib/jvm/java-8-openjdk-amd64/bin/xjc 1081 --slave /usr/share/man/man1/xjc.1.gz xjc.1.gz /usr/lib/jvm/java-8-openjdk-amd64/man/man1/xjc.1.gz
update-alternatives 2016-10-19 20:01:05: link group xjc updated to point to /usr/lib/jvm/java-8-openjdk-amd64/bin/xjc
update-alternatives 2016-10-19 20:01:05: run with --install /usr/bin/jarsigner jarsigner /usr/lib/jvm/java-8-openjdk-amd64/bin/jarsigner 1081 --slave /usr/share/man/man1/jarsigner.1.gz jarsigner.1.gz /usr/lib/jvm/java-8-openjdk-amd64/man/man1/jarsigner.1.gz
update-alternatives 2016-10-19 20:01:05: link group jarsigner updated to point to /usr/lib/jvm/java-8-openjdk-amd64/bin/jarsigner
update-alternatives 2016-10-19 20:01:05: run with --install /usr/bin/jmap jmap /usr/lib/jvm/java-8-openjdk-amd64/bin/jmap 1081 --slave /usr/share/man/man1/jmap.1.gz jmap.1.gz /usr/lib/jvm/java-8-openjdk-amd64/man/man1/jmap.1.gz
update-alternatives 2016-10-19 20:01:05: link group jmap updated to point to /usr/lib/jvm/java-8-openjdk-amd64/bin/jmap
update-alternatives 2016-10-19 20:01:05: run with --install /usr/bin/jstatd jstatd /usr/lib/jvm/java-8-openjdk-amd64/bin/jstatd 1081 --slave /usr/share/man/man1/jstatd.1.gz jstatd.1.gz /usr/lib/jvm/java-8-openjdk-amd64/man/man1/jstatd.1.gz
update-alternatives 2016-10-19 20:01:05: link group jstatd updated to point to /usr/lib/jvm/java-8-openjdk-amd64/bin/jstatd
update-alternatives 2016-10-19 20:01:05: run with --install /usr/bin/jhat jhat /usr/lib/jvm/java-8-openjdk-amd64/bin/jhat 1081 --slave /usr/share/man/man1/jhat.1.gz jhat.1.gz /usr/lib/jvm/java-8-openjdk-amd64/man/man1/jhat.1.gz
update-alternatives 2016-10-19 20:01:05: link group jhat updated to point to /usr/lib/jvm/java-8-openjdk-amd64/bin/jhat
update-alternatives 2016-10-19 20:01:05: run with --install /usr/bin/jdb jdb /usr/lib/jvm/java-8-openjdk-amd64/bin/jdb 1081 --slave /usr/share/man/man1/jdb.1.gz jdb.1.gz /usr/lib/jvm/java-8-openjdk-amd64/man/man1/jdb.1.gz
update-alternatives 2016-10-19 20:01:05: link group jdb updated to point to /usr/lib/jvm/java-8-openjdk-amd64/bin/jdb
update-alternatives 2016-10-19 20:01:05: run with --install /usr/bin/serialver serialver /usr/lib/jvm/java-8-openjdk-amd64/bin/serialver 1081 --slave /usr/share/man/man1/serialver.1.gz serialver.1.gz /usr/lib/jvm/java-8-openjdk-amd64/man/man1/serialver.1.gz
update-alternatives 2016-10-19 20:01:05: link group serialver updated to point to /usr/lib/jvm/java-8-openjdk-amd64/bin/serialver
update-alternatives 2016-10-19 20:01:05: run with --install /usr/bin/wsgen wsgen /usr/lib/jvm/java-8-openjdk-amd64/bin/wsgen 1081 --slave /usr/share/man/man1/wsgen.1.gz wsgen.1.gz /usr/lib/jvm/java-8-openjdk-amd64/man/man1/wsgen.1.gz
update-alternatives 2016-10-19 20:01:05: link group wsgen updated to point to /usr/lib/jvm/java-8-openjdk-amd64/bin/wsgen
update-alternatives 2016-10-19 20:01:05: run with --install /usr/bin/jcmd jcmd /usr/lib/jvm/java-8-openjdk-amd64/bin/jcmd 1081 --slave /usr/share/man/man1/jcmd.1.gz jcmd.1.gz /usr/lib/jvm/java-8-openjdk-amd64/man/man1/jcmd.1.gz
update-alternatives 2016-10-19 20:01:05: link group jcmd updated to point to /usr/lib/jvm/java-8-openjdk-amd64/bin/jcmd
update-alternatives 2016-10-19 20:01:05: run with --install /usr/bin/appletviewer appletviewer /usr/lib/jvm/java-8-openjdk-amd64/bin/appletviewer 1081 --slave /usr/share/man/man1/appletviewer.1.gz appletviewer.1.gz /usr/lib/jvm/java-8-openjdk-amd64/man/man1/appletviewer.1.gz
update-alternatives 2016-10-19 20:01:05: link group appletviewer updated to point to /usr/lib/jvm/java-8-openjdk-amd64/bin/appletviewer
update-alternatives 2016-10-19 20:01:05: run with --install /usr/bin/jconsole jconsole /usr/lib/jvm/java-8-openjdk-amd64/bin/jconsole 1081 --slave /usr/share/man/man1/jconsole.1.gz jconsole.1.gz /usr/lib/jvm/java-8-openjdk-amd64/man/man1/jconsole.1.gz
update-alternatives 2016-10-19 20:01:05: link group jconsole updated to point to /usr/lib/jvm/java-8-openjdk-amd64/bin/jconsole
update-alternatives 2016-10-28 16:06:48: run with --install /etc/mysql/my.cnf my.cnf /etc/mysql/my.cnf.fallback 100
update-alternatives 2016-10-28 16:06:58: run with --install /etc/mysql/my.cnf my.cnf /etc/mysql/mysql.cnf 200
