Nov  7 20:00:32 ip-172-31-23-199 sendmail[14328]: uA7K0Wdv014328: Authentication-Warning: ip-172-31-23-199.us-west-2.compute.internal: www-data set sender to Officer@ip-172-31-23-199.us-west-2.compute.internal using -f
Nov  7 20:00:32 ip-172-31-23-199 sendmail[14328]: uA7K0Wdv014328: from=Officer@ip-172-31-23-199.us-west-2.compute.internal, size=147, class=0, nrcpts=1, msgid=<201611072000.uA7K0Wdv014328@ip-172-31-23-199.us-west-2.compute.internal>, relay=www-data@localhost
Nov  7 20:00:32 ip-172-31-23-199 sm-mta[14329]: uA7K0W1L014329: from=<Officer@ip-172-31-23-199.us-west-2.compute.internal>, size=637, class=0, nrcpts=1, msgid=<201611072000.uA7K0Wdv014328@ip-172-31-23-199.us-west-2.compute.internal>, proto=ESMTP, daemon=MTA-v4, relay=localhost [127.0.0.1]
Nov  7 20:00:32 ip-172-31-23-199 sendmail[14328]: uA7K0Wdv014328: to=<mainphrame@hotmail.com>, delay=00:00:00, xdelay=00:00:00, mailer=relay, pri=30147, relay=[127.0.0.1] [127.0.0.1], dsn=2.0.0, stat=Sent (uA7K0W1L014329 Message accepted for delivery)
Nov  7 20:00:32 ip-172-31-23-199 sm-mta[14331]: STARTTLS=client, relay=gmail-smtp-msa.l.google.com., version=TLSv1.2, verify=FAIL, cipher=ECDHE-RSA-AES128-GCM-SHA256, bits=128/128
Nov  7 20:00:34 ip-172-31-23-199 sm-mta[14331]: uA7K0W1L014329: to=<mainphrame@hotmail.com>, delay=00:00:02, xdelay=00:00:02, mailer=relay, pri=120637, relay=gmail-smtp-msa.l.google.com. [173.194.203.109], dsn=2.0.0, stat=Sent (OK 1478548834 f23sm42447430pff.59 - gsmtp)
Nov  7 20:40:44 ip-172-31-23-199 sendmail[14514]: uA7KeiTd014514: Authentication-Warning: ip-172-31-23-199.us-west-2.compute.internal: www-data set sender to Officer@ip-172-31-23-199.us-west-2.compute.internal using -f
Nov  7 20:40:44 ip-172-31-23-199 sendmail[14514]: uA7KeiTd014514: from=Officer@ip-172-31-23-199.us-west-2.compute.internal, size=147, class=0, nrcpts=1, msgid=<201611072040.uA7KeiTd014514@ip-172-31-23-199.us-west-2.compute.internal>, relay=www-data@localhost
Nov  7 20:40:44 ip-172-31-23-199 sm-mta[14515]: uA7KeiMH014515: from=<Officer@ip-172-31-23-199.us-west-2.compute.internal>, size=637, class=0, nrcpts=1, msgid=<201611072040.uA7KeiTd014514@ip-172-31-23-199.us-west-2.compute.internal>, proto=ESMTP, daemon=MTA-v4, relay=localhost [127.0.0.1]
Nov  7 20:40:44 ip-172-31-23-199 sendmail[14514]: uA7KeiTd014514: to=<mainphrame@hotmail.com>, delay=00:00:00, xdelay=00:00:00, mailer=relay, pri=30147, relay=[127.0.0.1] [127.0.0.1], dsn=2.0.0, stat=Sent (uA7KeiMH014515 Message accepted for delivery)
Nov  7 20:40:44 ip-172-31-23-199 sm-mta[14517]: STARTTLS=client, relay=gmail-smtp-msa.l.google.com., version=TLSv1.2, verify=FAIL, cipher=ECDHE-RSA-AES128-GCM-SHA256, bits=128/128
Nov  7 20:40:45 ip-172-31-23-199 sm-mta[14517]: uA7KeiMH014515: to=<mainphrame@hotmail.com>, delay=00:00:01, xdelay=00:00:01, mailer=relay, pri=120637, relay=gmail-smtp-msa.l.google.com. [74.125.28.109], dsn=2.0.0, stat=Sent (OK 1478551245 g78sm42577261pfe.19 - gsmtp)
Nov  9 03:11:10 ip-172-31-23-199 sendmail[23143]: uA93BAnW023143: Authentication-Warning: ip-172-31-23-199.us-west-2.compute.internal: www-data set sender to Officer@ip-172-31-23-199.us-west-2.compute.internal using -f
Nov  9 03:11:10 ip-172-31-23-199 sendmail[23143]: uA93BAnW023143: from=Officer@ip-172-31-23-199.us-west-2.compute.internal, size=147, class=0, nrcpts=1, msgid=<201611090311.uA93BAnW023143@ip-172-31-23-199.us-west-2.compute.internal>, relay=www-data@localhost
Nov  9 03:11:10 ip-172-31-23-199 sm-mta[23144]: uA93BAqu023144: from=<Officer@ip-172-31-23-199.us-west-2.compute.internal>, size=637, class=0, nrcpts=1, msgid=<201611090311.uA93BAnW023143@ip-172-31-23-199.us-west-2.compute.internal>, proto=ESMTP, daemon=MTA-v4, relay=localhost [127.0.0.1]
Nov  9 03:11:11 ip-172-31-23-199 sendmail[23143]: uA93BAnW023143: to=<mainphrame@hotmail.com>, delay=00:00:01, xdelay=00:00:01, mailer=relay, pri=30147, relay=[127.0.0.1] [127.0.0.1], dsn=2.0.0, stat=Sent (uA93BAqu023144 Message accepted for delivery)
Nov  9 03:11:11 ip-172-31-23-199 sm-mta[23146]: STARTTLS=client, relay=gmail-smtp-msa.l.google.com., version=TLSv1.2, verify=FAIL, cipher=ECDHE-RSA-AES128-GCM-SHA256, bits=128/128
Nov  9 03:11:12 ip-172-31-23-199 sm-mta[23146]: uA93BAqu023144: to=<mainphrame@hotmail.com>, delay=00:00:02, xdelay=00:00:01, mailer=relay, pri=120637, relay=gmail-smtp-msa.l.google.com. [74.125.28.109], dsn=2.0.0, stat=Sent (OK 1478661072 fm6sm51231982pab.37 - gsmtp)
Nov 11 01:15:55 ip-172-31-23-199 sm-mta[1457]: starting daemon (8.15.2): SMTP+queueing@00:10:00
