[07-Nov-2016 06:25:01] NOTICE: error log file re-opened
[11-Nov-2016 01:15:17] NOTICE: Terminating ...
[11-Nov-2016 01:15:17] NOTICE: exiting, bye-bye!
[11-Nov-2016 01:15:53] NOTICE: configuration file /etc/php/7.0/fpm/php-fpm.conf test is successful

[11-Nov-2016 01:15:53] NOTICE: fpm is running, pid 1200
[11-Nov-2016 01:15:53] NOTICE: ready to handle connections
[11-Nov-2016 01:15:53] NOTICE: systemd monitor interval set to 10000ms
