Nov 16 06:39:01 ip-172-31-23-199 CRON[1234]: (root) CMD (  [ -x /usr/lib/php/sessionclean ] && /usr/lib/php/sessionclean)
Nov 16 06:40:02 ip-172-31-23-199 CRON[1310]: (smmsp) CMD (test -x /etc/init.d/sendmail && test -x /usr/share/sendmail/sendmail && test -x /usr/lib/sm.bin/sendmail && /usr/share/sendmail/sendmail cron-msp)
Nov 16 06:41:18 ip-172-31-23-199 dhclient[938]: DHCPREQUEST of 172.31.23.199 on eth0 to 172.31.16.1 port 67 (xid=0x27e00d11)
Nov 16 06:41:18 ip-172-31-23-199 dhclient[938]: DHCPACK of 172.31.23.199 from 172.31.16.1
Nov 16 06:41:19 ip-172-31-23-199 dhclient[938]: bound to 172.31.23.199 -- renewal in 1673 seconds.
Nov 16 07:00:01 ip-172-31-23-199 CRON[1548]: (smmsp) CMD (test -x /etc/init.d/sendmail && test -x /usr/share/sendmail/sendmail && test -x /usr/lib/sm.bin/sendmail && /usr/share/sendmail/sendmail cron-msp)
Nov 16 07:09:01 ip-172-31-23-199 CRON[1627]: (root) CMD (  [ -x /usr/lib/php/sessionclean ] && /usr/lib/php/sessionclean)
Nov 16 07:09:12 ip-172-31-23-199 dhclient[938]: DHCPREQUEST of 172.31.23.199 on eth0 to 172.31.16.1 port 67 (xid=0x27e00d11)
Nov 16 07:09:12 ip-172-31-23-199 dhclient[938]: DHCPACK of 172.31.23.199 from 172.31.16.1
Nov 16 07:09:12 ip-172-31-23-199 dhclient[938]: bound to 172.31.23.199 -- renewal in 1404 seconds.
Nov 16 07:17:01 ip-172-31-23-199 CRON[1752]: (root) CMD (   cd / && run-parts --report /etc/cron.hourly)
Nov 16 07:20:01 ip-172-31-23-199 CRON[1755]: (smmsp) CMD (test -x /etc/init.d/sendmail && test -x /usr/share/sendmail/sendmail && test -x /usr/lib/sm.bin/sendmail && /usr/share/sendmail/sendmail cron-msp)
Nov 16 07:32:36 ip-172-31-23-199 dhclient[938]: DHCPREQUEST of 172.31.23.199 on eth0 to 172.31.16.1 port 67 (xid=0x27e00d11)
Nov 16 07:32:36 ip-172-31-23-199 dhclient[938]: DHCPACK of 172.31.23.199 from 172.31.16.1
Nov 16 07:32:37 ip-172-31-23-199 dhclient[938]: bound to 172.31.23.199 -- renewal in 1548 seconds.
Nov 16 07:39:01 ip-172-31-23-199 CRON[1795]: (root) CMD (  [ -x /usr/lib/php/sessionclean ] && /usr/lib/php/sessionclean)
Nov 16 07:40:01 ip-172-31-23-199 CRON[1850]: (smmsp) CMD (test -x /etc/init.d/sendmail && test -x /usr/share/sendmail/sendmail && test -x /usr/lib/sm.bin/sendmail && /usr/share/sendmail/sendmail cron-msp)
Nov 16 07:58:25 ip-172-31-23-199 dhclient[938]: DHCPREQUEST of 172.31.23.199 on eth0 to 172.31.16.1 port 67 (xid=0x27e00d11)
Nov 16 07:58:25 ip-172-31-23-199 dhclient[938]: DHCPACK of 172.31.23.199 from 172.31.16.1
Nov 16 07:58:25 ip-172-31-23-199 dhclient[938]: bound to 172.31.23.199 -- renewal in 1646 seconds.
Nov 16 08:00:02 ip-172-31-23-199 CRON[1932]: (smmsp) CMD (test -x /etc/init.d/sendmail && test -x /usr/share/sendmail/sendmail && test -x /usr/lib/sm.bin/sendmail && /usr/share/sendmail/sendmail cron-msp)
Nov 16 08:09:01 ip-172-31-23-199 CRON[1985]: (root) CMD (  [ -x /usr/lib/php/sessionclean ] && /usr/lib/php/sessionclean)
Nov 16 08:17:02 ip-172-31-23-199 CRON[2047]: (root) CMD (   cd / && run-parts --report /etc/cron.hourly)
Nov 16 08:20:01 ip-172-31-23-199 CRON[2050]: (smmsp) CMD (test -x /etc/init.d/sendmail && test -x /usr/share/sendmail/sendmail && test -x /usr/lib/sm.bin/sendmail && /usr/share/sendmail/sendmail cron-msp)
Nov 16 08:25:51 ip-172-31-23-199 dhclient[938]: DHCPREQUEST of 172.31.23.199 on eth0 to 172.31.16.1 port 67 (xid=0x27e00d11)
Nov 16 08:25:51 ip-172-31-23-199 dhclient[938]: DHCPACK of 172.31.23.199 from 172.31.16.1
Nov 16 08:25:52 ip-172-31-23-199 dhclient[938]: bound to 172.31.23.199 -- renewal in 1380 seconds.
Nov 16 08:39:01 ip-172-31-23-199 CRON[2088]: (root) CMD (  [ -x /usr/lib/php/sessionclean ] && /usr/lib/php/sessionclean)
Nov 16 08:40:02 ip-172-31-23-199 CRON[2143]: (smmsp) CMD (test -x /etc/init.d/sendmail && test -x /usr/share/sendmail/sendmail && test -x /usr/lib/sm.bin/sendmail && /usr/share/sendmail/sendmail cron-msp)
Nov 16 08:48:51 ip-172-31-23-199 dhclient[938]: DHCPREQUEST of 172.31.23.199 on eth0 to 172.31.16.1 port 67 (xid=0x27e00d11)
Nov 16 08:48:51 ip-172-31-23-199 dhclient[938]: DHCPACK of 172.31.23.199 from 172.31.16.1
Nov 16 08:48:51 ip-172-31-23-199 dhclient[938]: bound to 172.31.23.199 -- renewal in 1692 seconds.
Nov 16 09:00:01 ip-172-31-23-199 CRON[2182]: (smmsp) CMD (test -x /etc/init.d/sendmail && test -x /usr/share/sendmail/sendmail && test -x /usr/lib/sm.bin/sendmail && /usr/share/sendmail/sendmail cron-msp)
Nov 16 09:09:02 ip-172-31-23-199 CRON[2244]: (root) CMD (  [ -x /usr/lib/php/sessionclean ] && /usr/lib/php/sessionclean)
Nov 16 09:17:01 ip-172-31-23-199 CRON[2301]: (root) CMD (   cd / && run-parts --report /etc/cron.hourly)
Nov 16 09:17:03 ip-172-31-23-199 dhclient[938]: DHCPREQUEST of 172.31.23.199 on eth0 to 172.31.16.1 port 67 (xid=0x27e00d11)
Nov 16 09:17:03 ip-172-31-23-199 dhclient[938]: DHCPACK of 172.31.23.199 from 172.31.16.1
Nov 16 09:17:03 ip-172-31-23-199 dhclient[938]: bound to 172.31.23.199 -- renewal in 1691 seconds.
Nov 16 09:20:01 ip-172-31-23-199 CRON[2326]: (smmsp) CMD (test -x /etc/init.d/sendmail && test -x /usr/share/sendmail/sendmail && test -x /usr/lib/sm.bin/sendmail && /usr/share/sendmail/sendmail cron-msp)
Nov 16 09:39:01 ip-172-31-23-199 CRON[2444]: (root) CMD (  [ -x /usr/lib/php/sessionclean ] && /usr/lib/php/sessionclean)
Nov 16 09:40:01 ip-172-31-23-199 CRON[2499]: (smmsp) CMD (test -x /etc/init.d/sendmail && test -x /usr/share/sendmail/sendmail && test -x /usr/lib/sm.bin/sendmail && /usr/share/sendmail/sendmail cron-msp)
Nov 16 09:45:14 ip-172-31-23-199 dhclient[938]: DHCPREQUEST of 172.31.23.199 on eth0 to 172.31.16.1 port 67 (xid=0x27e00d11)
Nov 16 09:45:14 ip-172-31-23-199 dhclient[938]: DHCPACK of 172.31.23.199 from 172.31.16.1
Nov 16 09:45:15 ip-172-31-23-199 dhclient[938]: bound to 172.31.23.199 -- renewal in 1423 seconds.
Nov 16 10:00:02 ip-172-31-23-199 CRON[2607]: (smmsp) CMD (test -x /etc/init.d/sendmail && test -x /usr/share/sendmail/sendmail && test -x /usr/lib/sm.bin/sendmail && /usr/share/sendmail/sendmail cron-msp)
Nov 16 10:08:58 ip-172-31-23-199 dhclient[938]: DHCPREQUEST of 172.31.23.199 on eth0 to 172.31.16.1 port 67 (xid=0x27e00d11)
Nov 16 10:08:58 ip-172-31-23-199 dhclient[938]: DHCPACK of 172.31.23.199 from 172.31.16.1
Nov 16 10:08:58 ip-172-31-23-199 dhclient[938]: bound to 172.31.23.199 -- renewal in 1756 seconds.
Nov 16 10:09:01 ip-172-31-23-199 CRON[2696]: (root) CMD (  [ -x /usr/lib/php/sessionclean ] && /usr/lib/php/sessionclean)
Nov 16 10:17:01 ip-172-31-23-199 CRON[2790]: (root) CMD (   cd / && run-parts --report /etc/cron.hourly)
Nov 16 10:20:01 ip-172-31-23-199 CRON[2807]: (smmsp) CMD (test -x /etc/init.d/sendmail && test -x /usr/share/sendmail/sendmail && test -x /usr/lib/sm.bin/sendmail && /usr/share/sendmail/sendmail cron-msp)
Nov 16 10:27:21 ip-172-31-23-199 systemd[1]: Starting Daily apt activities...
Nov 16 10:27:33 ip-172-31-23-199 systemd[1]: Started Daily apt activities.
Nov 16 10:27:33 ip-172-31-23-199 systemd[1]: apt-daily.timer: Adding 8h 46min 23.373695s random time.
Nov 16 10:27:33 ip-172-31-23-199 systemd[1]: apt-daily.timer: Adding 4h 37min 58.291406s random time.
Nov 16 10:38:14 ip-172-31-23-199 dhclient[938]: DHCPREQUEST of 172.31.23.199 on eth0 to 172.31.16.1 port 67 (xid=0x27e00d11)
Nov 16 10:38:14 ip-172-31-23-199 dhclient[938]: DHCPACK of 172.31.23.199 from 172.31.16.1
Nov 16 10:38:14 ip-172-31-23-199 dhclient[938]: bound to 172.31.23.199 -- renewal in 1747 seconds.
Nov 16 10:39:01 ip-172-31-23-199 CRON[3021]: (root) CMD (  [ -x /usr/lib/php/sessionclean ] && /usr/lib/php/sessionclean)
Nov 16 10:40:01 ip-172-31-23-199 CRON[3084]: (smmsp) CMD (test -x /etc/init.d/sendmail && test -x /usr/share/sendmail/sendmail && test -x /usr/lib/sm.bin/sendmail && /usr/share/sendmail/sendmail cron-msp)
Nov 16 11:00:01 ip-172-31-23-199 CRON[3297]: (smmsp) CMD (test -x /etc/init.d/sendmail && test -x /usr/share/sendmail/sendmail && test -x /usr/lib/sm.bin/sendmail && /usr/share/sendmail/sendmail cron-msp)
Nov 16 11:07:21 ip-172-31-23-199 dhclient[938]: DHCPREQUEST of 172.31.23.199 on eth0 to 172.31.16.1 port 67 (xid=0x27e00d11)
Nov 16 11:07:21 ip-172-31-23-199 dhclient[938]: DHCPACK of 172.31.23.199 from 172.31.16.1
Nov 16 11:07:21 ip-172-31-23-199 dhclient[938]: bound to 172.31.23.199 -- renewal in 1386 seconds.
Nov 16 11:09:01 ip-172-31-23-199 CRON[3438]: (root) CMD (  [ -x /usr/lib/php/sessionclean ] && /usr/lib/php/sessionclean)
Nov 16 11:17:01 ip-172-31-23-199 CRON[3537]: (root) CMD (   cd / && run-parts --report /etc/cron.hourly)
Nov 16 11:20:02 ip-172-31-23-199 CRON[3558]: (smmsp) CMD (test -x /etc/init.d/sendmail && test -x /usr/share/sendmail/sendmail && test -x /usr/lib/sm.bin/sendmail && /usr/share/sendmail/sendmail cron-msp)
Nov 16 11:30:27 ip-172-31-23-199 dhclient[938]: DHCPREQUEST of 172.31.23.199 on eth0 to 172.31.16.1 port 67 (xid=0x27e00d11)
Nov 16 11:30:27 ip-172-31-23-199 dhclient[938]: DHCPACK of 172.31.23.199 from 172.31.16.1
Nov 16 11:30:27 ip-172-31-23-199 dhclient[938]: bound to 172.31.23.199 -- renewal in 1746 seconds.
Nov 16 11:39:01 ip-172-31-23-199 CRON[3686]: (root) CMD (  [ -x /usr/lib/php/sessionclean ] && /usr/lib/php/sessionclean)
Nov 16 11:40:01 ip-172-31-23-199 CRON[3747]: (smmsp) CMD (test -x /etc/init.d/sendmail && test -x /usr/share/sendmail/sendmail && test -x /usr/lib/sm.bin/sendmail && /usr/share/sendmail/sendmail cron-msp)
Nov 16 11:59:34 ip-172-31-23-199 dhclient[938]: DHCPREQUEST of 172.31.23.199 on eth0 to 172.31.16.1 port 67 (xid=0x27e00d11)
Nov 16 11:59:34 ip-172-31-23-199 dhclient[938]: DHCPACK of 172.31.23.199 from 172.31.16.1
Nov 16 11:59:34 ip-172-31-23-199 dhclient[938]: bound to 172.31.23.199 -- renewal in 1707 seconds.
Nov 16 12:00:02 ip-172-31-23-199 CRON[3791]: (smmsp) CMD (test -x /etc/init.d/sendmail && test -x /usr/share/sendmail/sendmail && test -x /usr/lib/sm.bin/sendmail && /usr/share/sendmail/sendmail cron-msp)
Nov 16 12:09:01 ip-172-31-23-199 CRON[3832]: (root) CMD (  [ -x /usr/lib/php/sessionclean ] && /usr/lib/php/sessionclean)
Nov 16 12:17:01 ip-172-31-23-199 CRON[3956]: (root) CMD (   cd / && run-parts --report /etc/cron.hourly)
Nov 16 12:20:02 ip-172-31-23-199 CRON[3959]: (smmsp) CMD (test -x /etc/init.d/sendmail && test -x /usr/share/sendmail/sendmail && test -x /usr/lib/sm.bin/sendmail && /usr/share/sendmail/sendmail cron-msp)
Nov 16 12:28:01 ip-172-31-23-199 dhclient[938]: DHCPREQUEST of 172.31.23.199 on eth0 to 172.31.16.1 port 67 (xid=0x27e00d11)
Nov 16 12:28:01 ip-172-31-23-199 dhclient[938]: DHCPACK of 172.31.23.199 from 172.31.16.1
Nov 16 12:28:01 ip-172-31-23-199 dhclient[938]: bound to 172.31.23.199 -- renewal in 1414 seconds.
Nov 16 12:39:01 ip-172-31-23-199 CRON[3997]: (root) CMD (  [ -x /usr/lib/php/sessionclean ] && /usr/lib/php/sessionclean)
Nov 16 12:40:01 ip-172-31-23-199 CRON[4053]: (smmsp) CMD (test -x /etc/init.d/sendmail && test -x /usr/share/sendmail/sendmail && test -x /usr/lib/sm.bin/sendmail && /usr/share/sendmail/sendmail cron-msp)
Nov 16 12:51:35 ip-172-31-23-199 dhclient[938]: DHCPREQUEST of 172.31.23.199 on eth0 to 172.31.16.1 port 67 (xid=0x27e00d11)
Nov 16 12:51:35 ip-172-31-23-199 dhclient[938]: DHCPACK of 172.31.23.199 from 172.31.16.1
Nov 16 12:51:35 ip-172-31-23-199 dhclient[938]: bound to 172.31.23.199 -- renewal in 1605 seconds.
Nov 16 13:00:01 ip-172-31-23-199 CRON[4094]: (smmsp) CMD (test -x /etc/init.d/sendmail && test -x /usr/share/sendmail/sendmail && test -x /usr/lib/sm.bin/sendmail && /usr/share/sendmail/sendmail cron-msp)
Nov 16 13:09:01 ip-172-31-23-199 CRON[4123]: (root) CMD (  [ -x /usr/lib/php/sessionclean ] && /usr/lib/php/sessionclean)
Nov 16 13:17:01 ip-172-31-23-199 CRON[4179]: (root) CMD (   cd / && run-parts --report /etc/cron.hourly)
Nov 16 13:18:21 ip-172-31-23-199 dhclient[938]: DHCPREQUEST of 172.31.23.199 on eth0 to 172.31.16.1 port 67 (xid=0x27e00d11)
Nov 16 13:18:21 ip-172-31-23-199 dhclient[938]: DHCPACK of 172.31.23.199 from 172.31.16.1
Nov 16 13:18:21 ip-172-31-23-199 dhclient[938]: bound to 172.31.23.199 -- renewal in 1629 seconds.
Nov 16 13:20:01 ip-172-31-23-199 CRON[4196]: (smmsp) CMD (test -x /etc/init.d/sendmail && test -x /usr/share/sendmail/sendmail && test -x /usr/lib/sm.bin/sendmail && /usr/share/sendmail/sendmail cron-msp)
Nov 16 13:39:01 ip-172-31-23-199 CRON[4260]: (root) CMD (  [ -x /usr/lib/php/sessionclean ] && /usr/lib/php/sessionclean)
Nov 16 13:40:01 ip-172-31-23-199 CRON[4315]: (smmsp) CMD (test -x /etc/init.d/sendmail && test -x /usr/share/sendmail/sendmail && test -x /usr/lib/sm.bin/sendmail && /usr/share/sendmail/sendmail cron-msp)
Nov 16 13:45:30 ip-172-31-23-199 dhclient[938]: DHCPREQUEST of 172.31.23.199 on eth0 to 172.31.16.1 port 67 (xid=0x27e00d11)
Nov 16 13:45:30 ip-172-31-23-199 dhclient[938]: DHCPACK of 172.31.23.199 from 172.31.16.1
Nov 16 13:45:30 ip-172-31-23-199 dhclient[938]: bound to 172.31.23.199 -- renewal in 1363 seconds.
Nov 16 13:50:31 ip-172-31-23-199 stunnel: LOG5[8]: Service [redis] accepted connection from 74.82.47.2:26732
Nov 16 13:50:42 ip-172-31-23-199 stunnel: LOG3[8]: SSL_accept: Peer suddenly disconnected
Nov 16 13:50:42 ip-172-31-23-199 stunnel: LOG5[8]: Connection reset: 0 byte(s) sent to SSL, 0 byte(s) sent to socket
Nov 16 14:00:01 ip-172-31-23-199 CRON[4383]: (smmsp) CMD (test -x /etc/init.d/sendmail && test -x /usr/share/sendmail/sendmail && test -x /usr/lib/sm.bin/sendmail && /usr/share/sendmail/sendmail cron-msp)
Nov 16 14:08:13 ip-172-31-23-199 dhclient[938]: DHCPREQUEST of 172.31.23.199 on eth0 to 172.31.16.1 port 67 (xid=0x27e00d11)
Nov 16 14:08:13 ip-172-31-23-199 dhclient[938]: DHCPACK of 172.31.23.199 from 172.31.16.1
Nov 16 14:08:14 ip-172-31-23-199 dhclient[938]: bound to 172.31.23.199 -- renewal in 1489 seconds.
Nov 16 14:09:02 ip-172-31-23-199 CRON[4420]: (root) CMD (  [ -x /usr/lib/php/sessionclean ] && /usr/lib/php/sessionclean)
Nov 16 14:17:01 ip-172-31-23-199 CRON[4476]: (root) CMD (   cd / && run-parts --report /etc/cron.hourly)
Nov 16 14:20:01 ip-172-31-23-199 CRON[4479]: (smmsp) CMD (test -x /etc/init.d/sendmail && test -x /usr/share/sendmail/sendmail && test -x /usr/lib/sm.bin/sendmail && /usr/share/sendmail/sendmail cron-msp)
Nov 16 14:33:03 ip-172-31-23-199 dhclient[938]: DHCPREQUEST of 172.31.23.199 on eth0 to 172.31.16.1 port 67 (xid=0x27e00d11)
Nov 16 14:33:03 ip-172-31-23-199 dhclient[938]: DHCPACK of 172.31.23.199 from 172.31.16.1
Nov 16 14:33:04 ip-172-31-23-199 dhclient[938]: bound to 172.31.23.199 -- renewal in 1558 seconds.
Nov 16 14:39:02 ip-172-31-23-199 CRON[4535]: (root) CMD (  [ -x /usr/lib/php/sessionclean ] && /usr/lib/php/sessionclean)
Nov 16 14:40:02 ip-172-31-23-199 CRON[4598]: (smmsp) CMD (test -x /etc/init.d/sendmail && test -x /usr/share/sendmail/sendmail && test -x /usr/lib/sm.bin/sendmail && /usr/share/sendmail/sendmail cron-msp)
Nov 16 14:59:02 ip-172-31-23-199 dhclient[938]: DHCPREQUEST of 172.31.23.199 on eth0 to 172.31.16.1 port 67 (xid=0x27e00d11)
Nov 16 14:59:02 ip-172-31-23-199 dhclient[938]: DHCPACK of 172.31.23.199 from 172.31.16.1
Nov 16 14:59:02 ip-172-31-23-199 dhclient[938]: bound to 172.31.23.199 -- renewal in 1670 seconds.
Nov 16 15:00:01 ip-172-31-23-199 CRON[4647]: (smmsp) CMD (test -x /etc/init.d/sendmail && test -x /usr/share/sendmail/sendmail && test -x /usr/lib/sm.bin/sendmail && /usr/share/sendmail/sendmail cron-msp)
Nov 16 15:09:02 ip-172-31-23-199 CRON[4702]: (root) CMD (  [ -x /usr/lib/php/sessionclean ] && /usr/lib/php/sessionclean)
Nov 16 15:17:01 ip-172-31-23-199 CRON[4758]: (root) CMD (   cd / && run-parts --report /etc/cron.hourly)
Nov 16 15:20:01 ip-172-31-23-199 CRON[4775]: (smmsp) CMD (test -x /etc/init.d/sendmail && test -x /usr/share/sendmail/sendmail && test -x /usr/lib/sm.bin/sendmail && /usr/share/sendmail/sendmail cron-msp)
Nov 16 15:26:52 ip-172-31-23-199 dhclient[938]: DHCPREQUEST of 172.31.23.199 on eth0 to 172.31.16.1 port 67 (xid=0x27e00d11)
Nov 16 15:26:52 ip-172-31-23-199 dhclient[938]: DHCPACK of 172.31.23.199 from 172.31.16.1
Nov 16 15:26:52 ip-172-31-23-199 dhclient[938]: bound to 172.31.23.199 -- renewal in 1593 seconds.
Nov 16 15:39:01 ip-172-31-23-199 CRON[4857]: (root) CMD (  [ -x /usr/lib/php/sessionclean ] && /usr/lib/php/sessionclean)
Nov 16 15:40:01 ip-172-31-23-199 CRON[4924]: (smmsp) CMD (test -x /etc/init.d/sendmail && test -x /usr/share/sendmail/sendmail && test -x /usr/lib/sm.bin/sendmail && /usr/share/sendmail/sendmail cron-msp)
Nov 16 15:53:25 ip-172-31-23-199 dhclient[938]: DHCPREQUEST of 172.31.23.199 on eth0 to 172.31.16.1 port 67 (xid=0x27e00d11)
Nov 16 15:53:25 ip-172-31-23-199 dhclient[938]: DHCPACK of 172.31.23.199 from 172.31.16.1
Nov 16 15:53:25 ip-172-31-23-199 dhclient[938]: bound to 172.31.23.199 -- renewal in 1690 seconds.
Nov 16 16:00:02 ip-172-31-23-199 CRON[4964]: (smmsp) CMD (test -x /etc/init.d/sendmail && test -x /usr/share/sendmail/sendmail && test -x /usr/lib/sm.bin/sendmail && /usr/share/sendmail/sendmail cron-msp)
Nov 16 16:09:01 ip-172-31-23-199 CRON[4987]: (root) CMD (  [ -x /usr/lib/php/sessionclean ] && /usr/lib/php/sessionclean)
Nov 16 16:17:01 ip-172-31-23-199 CRON[5043]: (root) CMD (   cd / && run-parts --report /etc/cron.hourly)
Nov 16 16:20:01 ip-172-31-23-199 CRON[5046]: (smmsp) CMD (test -x /etc/init.d/sendmail && test -x /usr/share/sendmail/sendmail && test -x /usr/lib/sm.bin/sendmail && /usr/share/sendmail/sendmail cron-msp)
Nov 16 16:21:36 ip-172-31-23-199 dhclient[938]: DHCPREQUEST of 172.31.23.199 on eth0 to 172.31.16.1 port 67 (xid=0x27e00d11)
Nov 16 16:21:36 ip-172-31-23-199 dhclient[938]: DHCPACK of 172.31.23.199 from 172.31.16.1
Nov 16 16:21:36 ip-172-31-23-199 dhclient[938]: bound to 172.31.23.199 -- renewal in 1419 seconds.
Nov 16 16:39:01 ip-172-31-23-199 CRON[5084]: (root) CMD (  [ -x /usr/lib/php/sessionclean ] && /usr/lib/php/sessionclean)
Nov 16 16:39:23 ip-172-31-23-199 systemd[1]: snapd.refresh.timer: Adding 42min 223.315ms random time.
Nov 16 16:40:01 ip-172-31-23-199 CRON[5140]: (root) CMD (   test -x /etc/cron.daily/popularity-contest && /etc/cron.daily/popularity-contest --crond)
Nov 16 16:40:01 ip-172-31-23-199 CRON[5141]: (smmsp) CMD (test -x /etc/init.d/sendmail && test -x /usr/share/sendmail/sendmail && test -x /usr/lib/sm.bin/sendmail && /usr/share/sendmail/sendmail cron-msp)
Nov 16 16:45:15 ip-172-31-23-199 dhclient[938]: DHCPREQUEST of 172.31.23.199 on eth0 to 172.31.16.1 port 67 (xid=0x27e00d11)
Nov 16 16:45:15 ip-172-31-23-199 dhclient[938]: DHCPACK of 172.31.23.199 from 172.31.16.1
Nov 16 16:45:15 ip-172-31-23-199 dhclient[938]: bound to 172.31.23.199 -- renewal in 1797 seconds.
Nov 16 16:53:04 ip-172-31-23-199 systemd[1]: Created slice User Slice of ubuntu.
Nov 16 16:53:04 ip-172-31-23-199 systemd[1]: Starting User Manager for UID 1000...
Nov 16 16:53:04 ip-172-31-23-199 systemd[1]: Started Session 839 of user ubuntu.
Nov 16 16:53:05 ip-172-31-23-199 systemd[5182]: Reached target Sockets.
Nov 16 16:53:05 ip-172-31-23-199 systemd[5182]: Reached target Timers.
Nov 16 16:53:05 ip-172-31-23-199 systemd[5182]: Reached target Paths.
Nov 16 16:53:05 ip-172-31-23-199 systemd[5182]: Reached target Basic System.
Nov 16 16:53:05 ip-172-31-23-199 systemd[5182]: Reached target Default.
Nov 16 16:53:05 ip-172-31-23-199 systemd[5182]: Startup finished in 274ms.
Nov 16 16:53:05 ip-172-31-23-199 systemd[1]: Started User Manager for UID 1000.
Nov 16 17:00:02 ip-172-31-23-199 CRON[5276]: (smmsp) CMD (test -x /etc/init.d/sendmail && test -x /usr/share/sendmail/sendmail && test -x /usr/lib/sm.bin/sendmail && /usr/share/sendmail/sendmail cron-msp)
Nov 16 17:04:15 ip-172-31-23-199 systemd[1]: Stopping User Manager for UID 1000...
Nov 16 17:04:15 ip-172-31-23-199 systemd[5182]: Stopped target Default.
Nov 16 17:04:15 ip-172-31-23-199 systemd[5182]: Stopped target Basic System.
Nov 16 17:04:15 ip-172-31-23-199 systemd[5182]: Stopped target Timers.
Nov 16 17:04:15 ip-172-31-23-199 systemd[5182]: Stopped target Sockets.
Nov 16 17:04:15 ip-172-31-23-199 systemd[5182]: Reached target Shutdown.
Nov 16 17:04:15 ip-172-31-23-199 systemd[5182]: Stopped target Paths.
Nov 16 17:04:15 ip-172-31-23-199 systemd[5182]: Starting Exit the Session...
Nov 16 17:04:15 ip-172-31-23-199 systemd[5182]: Received SIGRTMIN+24 from PID 5302 (kill).
Nov 16 17:04:15 ip-172-31-23-199 systemd[1]: Stopped User Manager for UID 1000.
Nov 16 17:04:15 ip-172-31-23-199 systemd[1]: Removed slice User Slice of ubuntu.
Nov 16 17:09:01 ip-172-31-23-199 CRON[5312]: (root) CMD (  [ -x /usr/lib/php/sessionclean ] && /usr/lib/php/sessionclean)
Nov 16 17:15:13 ip-172-31-23-199 dhclient[938]: DHCPREQUEST of 172.31.23.199 on eth0 to 172.31.16.1 port 67 (xid=0x27e00d11)
Nov 16 17:15:13 ip-172-31-23-199 dhclient[938]: DHCPACK of 172.31.23.199 from 172.31.16.1
Nov 16 17:15:13 ip-172-31-23-199 dhclient[938]: bound to 172.31.23.199 -- renewal in 1495 seconds.
Nov 16 17:17:01 ip-172-31-23-199 CRON[5382]: (root) CMD (   cd / && run-parts --report /etc/cron.hourly)
Nov 16 17:20:01 ip-172-31-23-199 CRON[5405]: (smmsp) CMD (test -x /etc/init.d/sendmail && test -x /usr/share/sendmail/sendmail && test -x /usr/lib/sm.bin/sendmail && /usr/share/sendmail/sendmail cron-msp)
Nov 16 17:39:01 ip-172-31-23-199 CRON[5441]: (root) CMD (  [ -x /usr/lib/php/sessionclean ] && /usr/lib/php/sessionclean)
Nov 16 17:40:01 ip-172-31-23-199 CRON[5496]: (smmsp) CMD (test -x /etc/init.d/sendmail && test -x /usr/share/sendmail/sendmail && test -x /usr/lib/sm.bin/sendmail && /usr/share/sendmail/sendmail cron-msp)
Nov 16 17:40:08 ip-172-31-23-199 dhclient[938]: DHCPREQUEST of 172.31.23.199 on eth0 to 172.31.16.1 port 67 (xid=0x27e00d11)
Nov 16 17:40:08 ip-172-31-23-199 dhclient[938]: DHCPACK of 172.31.23.199 from 172.31.16.1
Nov 16 17:40:09 ip-172-31-23-199 dhclient[938]: bound to 172.31.23.199 -- renewal in 1618 seconds.
Nov 16 17:42:06 ip-172-31-23-199 systemd[1]: snapd.refresh.timer: Adding 4h 58min 18.712433s random time.
Nov 16 18:00:01 ip-172-31-23-199 CRON[5568]: (smmsp) CMD (test -x /etc/init.d/sendmail && test -x /usr/share/sendmail/sendmail && test -x /usr/lib/sm.bin/sendmail && /usr/share/sendmail/sendmail cron-msp)
Nov 16 18:07:07 ip-172-31-23-199 dhclient[938]: DHCPREQUEST of 172.31.23.199 on eth0 to 172.31.16.1 port 67 (xid=0x27e00d11)
Nov 16 18:07:07 ip-172-31-23-199 dhclient[938]: DHCPACK of 172.31.23.199 from 172.31.16.1
Nov 16 18:07:08 ip-172-31-23-199 dhclient[938]: bound to 172.31.23.199 -- renewal in 1612 seconds.
Nov 16 18:09:01 ip-172-31-23-199 CRON[5609]: (root) CMD (  [ -x /usr/lib/php/sessionclean ] && /usr/lib/php/sessionclean)
Nov 16 18:17:01 ip-172-31-23-199 CRON[5702]: (root) CMD (   cd / && run-parts --report /etc/cron.hourly)
Nov 16 18:20:02 ip-172-31-23-199 CRON[5705]: (smmsp) CMD (test -x /etc/init.d/sendmail && test -x /usr/share/sendmail/sendmail && test -x /usr/lib/sm.bin/sendmail && /usr/share/sendmail/sendmail cron-msp)
Nov 16 18:34:00 ip-172-31-23-199 dhclient[938]: DHCPREQUEST of 172.31.23.199 on eth0 to 172.31.16.1 port 67 (xid=0x27e00d11)
Nov 16 18:34:00 ip-172-31-23-199 dhclient[938]: DHCPACK of 172.31.23.199 from 172.31.16.1
Nov 16 18:34:01 ip-172-31-23-199 dhclient[938]: bound to 172.31.23.199 -- renewal in 1663 seconds.
Nov 16 18:39:01 ip-172-31-23-199 CRON[5783]: (root) CMD (  [ -x /usr/lib/php/sessionclean ] && /usr/lib/php/sessionclean)
Nov 16 18:40:01 ip-172-31-23-199 CRON[5838]: (smmsp) CMD (test -x /etc/init.d/sendmail && test -x /usr/share/sendmail/sendmail && test -x /usr/lib/sm.bin/sendmail && /usr/share/sendmail/sendmail cron-msp)
Nov 16 19:00:01 ip-172-31-23-199 CRON[5887]: (smmsp) CMD (test -x /etc/init.d/sendmail && test -x /usr/share/sendmail/sendmail && test -x /usr/lib/sm.bin/sendmail && /usr/share/sendmail/sendmail cron-msp)
Nov 16 19:01:44 ip-172-31-23-199 dhclient[938]: DHCPREQUEST of 172.31.23.199 on eth0 to 172.31.16.1 port 67 (xid=0x27e00d11)
Nov 16 19:01:44 ip-172-31-23-199 dhclient[938]: DHCPACK of 172.31.23.199 from 172.31.16.1
Nov 16 19:01:45 ip-172-31-23-199 dhclient[938]: bound to 172.31.23.199 -- renewal in 1555 seconds.
Nov 16 19:09:01 ip-172-31-23-199 CRON[5946]: (root) CMD (  [ -x /usr/lib/php/sessionclean ] && /usr/lib/php/sessionclean)
Nov 16 19:17:01 ip-172-31-23-199 CRON[6002]: (root) CMD (   cd / && run-parts --report /etc/cron.hourly)
Nov 16 19:20:01 ip-172-31-23-199 CRON[6005]: (smmsp) CMD (test -x /etc/init.d/sendmail && test -x /usr/share/sendmail/sendmail && test -x /usr/lib/sm.bin/sendmail && /usr/share/sendmail/sendmail cron-msp)
Nov 16 19:27:40 ip-172-31-23-199 dhclient[938]: DHCPREQUEST of 172.31.23.199 on eth0 to 172.31.16.1 port 67 (xid=0x27e00d11)
Nov 16 19:27:40 ip-172-31-23-199 dhclient[938]: DHCPACK of 172.31.23.199 from 172.31.16.1
Nov 16 19:27:41 ip-172-31-23-199 dhclient[938]: bound to 172.31.23.199 -- renewal in 1571 seconds.
Nov 16 19:39:02 ip-172-31-23-199 CRON[6093]: (root) CMD (  [ -x /usr/lib/php/sessionclean ] && /usr/lib/php/sessionclean)
Nov 16 19:40:01 ip-172-31-23-199 CRON[6148]: (smmsp) CMD (test -x /etc/init.d/sendmail && test -x /usr/share/sendmail/sendmail && test -x /usr/lib/sm.bin/sendmail && /usr/share/sendmail/sendmail cron-msp)
Nov 16 19:53:52 ip-172-31-23-199 dhclient[938]: DHCPREQUEST of 172.31.23.199 on eth0 to 172.31.16.1 port 67 (xid=0x27e00d11)
Nov 16 19:53:52 ip-172-31-23-199 dhclient[938]: DHCPACK of 172.31.23.199 from 172.31.16.1
Nov 16 19:53:53 ip-172-31-23-199 dhclient[938]: bound to 172.31.23.199 -- renewal in 1525 seconds.
Nov 16 20:00:01 ip-172-31-23-199 CRON[6232]: (smmsp) CMD (test -x /etc/init.d/sendmail && test -x /usr/share/sendmail/sendmail && test -x /usr/lib/sm.bin/sendmail && /usr/share/sendmail/sendmail cron-msp)
Nov 16 20:09:01 ip-172-31-23-199 CRON[6256]: (root) CMD (  [ -x /usr/lib/php/sessionclean ] && /usr/lib/php/sessionclean)
Nov 16 20:17:02 ip-172-31-23-199 CRON[6312]: (root) CMD (   cd / && run-parts --report /etc/cron.hourly)
Nov 16 20:19:19 ip-172-31-23-199 dhclient[938]: DHCPREQUEST of 172.31.23.199 on eth0 to 172.31.16.1 port 67 (xid=0x27e00d11)
Nov 16 20:19:19 ip-172-31-23-199 dhclient[938]: DHCPACK of 172.31.23.199 from 172.31.16.1
Nov 16 20:19:19 ip-172-31-23-199 dhclient[938]: bound to 172.31.23.199 -- renewal in 1725 seconds.
Nov 16 20:20:01 ip-172-31-23-199 CRON[6329]: (smmsp) CMD (test -x /etc/init.d/sendmail && test -x /usr/share/sendmail/sendmail && test -x /usr/lib/sm.bin/sendmail && /usr/share/sendmail/sendmail cron-msp)
Nov 16 20:39:02 ip-172-31-23-199 CRON[6397]: (root) CMD (  [ -x /usr/lib/php/sessionclean ] && /usr/lib/php/sessionclean)
Nov 16 20:40:01 ip-172-31-23-199 CRON[6452]: (smmsp) CMD (test -x /etc/init.d/sendmail && test -x /usr/share/sendmail/sendmail && test -x /usr/lib/sm.bin/sendmail && /usr/share/sendmail/sendmail cron-msp)
Nov 16 20:48:05 ip-172-31-23-199 dhclient[938]: DHCPREQUEST of 172.31.23.199 on eth0 to 172.31.16.1 port 67 (xid=0x27e00d11)
Nov 16 20:48:05 ip-172-31-23-199 dhclient[938]: DHCPACK of 172.31.23.199 from 172.31.16.1
Nov 16 20:48:05 ip-172-31-23-199 dhclient[938]: bound to 172.31.23.199 -- renewal in 1771 seconds.
Nov 16 21:00:01 ip-172-31-23-199 CRON[6537]: (smmsp) CMD (test -x /etc/init.d/sendmail && test -x /usr/share/sendmail/sendmail && test -x /usr/lib/sm.bin/sendmail && /usr/share/sendmail/sendmail cron-msp)
Nov 16 21:09:01 ip-172-31-23-199 CRON[6562]: (root) CMD (  [ -x /usr/lib/php/sessionclean ] && /usr/lib/php/sessionclean)
Nov 16 21:17:01 ip-172-31-23-199 CRON[6628]: (root) CMD (   cd / && run-parts --report /etc/cron.hourly)
Nov 16 21:17:36 ip-172-31-23-199 dhclient[938]: DHCPREQUEST of 172.31.23.199 on eth0 to 172.31.16.1 port 67 (xid=0x27e00d11)
Nov 16 21:17:36 ip-172-31-23-199 dhclient[938]: DHCPACK of 172.31.23.199 from 172.31.16.1
Nov 16 21:17:37 ip-172-31-23-199 dhclient[938]: bound to 172.31.23.199 -- renewal in 1394 seconds.
Nov 16 21:20:01 ip-172-31-23-199 CRON[6645]: (smmsp) CMD (test -x /etc/init.d/sendmail && test -x /usr/share/sendmail/sendmail && test -x /usr/lib/sm.bin/sendmail && /usr/share/sendmail/sendmail cron-msp)
Nov 16 21:39:01 ip-172-31-23-199 CRON[6671]: (root) CMD (  [ -x /usr/lib/php/sessionclean ] && /usr/lib/php/sessionclean)
Nov 16 21:40:01 ip-172-31-23-199 CRON[6726]: (smmsp) CMD (test -x /etc/init.d/sendmail && test -x /usr/share/sendmail/sendmail && test -x /usr/lib/sm.bin/sendmail && /usr/share/sendmail/sendmail cron-msp)
Nov 16 21:40:51 ip-172-31-23-199 dhclient[938]: DHCPREQUEST of 172.31.23.199 on eth0 to 172.31.16.1 port 67 (xid=0x27e00d11)
Nov 16 21:40:51 ip-172-31-23-199 dhclient[938]: DHCPACK of 172.31.23.199 from 172.31.16.1
Nov 16 21:40:51 ip-172-31-23-199 dhclient[938]: bound to 172.31.23.199 -- renewal in 1776 seconds.
Nov 16 22:00:01 ip-172-31-23-199 CRON[6770]: (smmsp) CMD (test -x /etc/init.d/sendmail && test -x /usr/share/sendmail/sendmail && test -x /usr/lib/sm.bin/sendmail && /usr/share/sendmail/sendmail cron-msp)
Nov 16 22:09:02 ip-172-31-23-199 CRON[6793]: (root) CMD (  [ -x /usr/lib/php/sessionclean ] && /usr/lib/php/sessionclean)
Nov 16 22:10:27 ip-172-31-23-199 dhclient[938]: DHCPREQUEST of 172.31.23.199 on eth0 to 172.31.16.1 port 67 (xid=0x27e00d11)
Nov 16 22:10:27 ip-172-31-23-199 dhclient[938]: DHCPACK of 172.31.23.199 from 172.31.16.1
Nov 16 22:10:28 ip-172-31-23-199 dhclient[938]: bound to 172.31.23.199 -- renewal in 1608 seconds.
Nov 16 22:17:01 ip-172-31-23-199 CRON[6865]: (root) CMD (   cd / && run-parts --report /etc/cron.hourly)
Nov 16 22:20:01 ip-172-31-23-199 CRON[6870]: (smmsp) CMD (test -x /etc/init.d/sendmail && test -x /usr/share/sendmail/sendmail && test -x /usr/lib/sm.bin/sendmail && /usr/share/sendmail/sendmail cron-msp)
Nov 16 22:37:16 ip-172-31-23-199 dhclient[938]: DHCPREQUEST of 172.31.23.199 on eth0 to 172.31.16.1 port 67 (xid=0x27e00d11)
Nov 16 22:37:16 ip-172-31-23-199 dhclient[938]: DHCPACK of 172.31.23.199 from 172.31.16.1
Nov 16 22:37:16 ip-172-31-23-199 dhclient[938]: bound to 172.31.23.199 -- renewal in 1652 seconds.
Nov 16 22:38:03 ip-172-31-23-199 systemd[1]: Starting Daily apt activities...
Nov 16 22:38:12 ip-172-31-23-199 systemd[1]: Started Daily apt activities.
Nov 16 22:38:12 ip-172-31-23-199 systemd[1]: apt-daily.timer: Adding 6h 11min 14.470167s random time.
Nov 16 22:38:12 ip-172-31-23-199 systemd[1]: apt-daily.timer: Adding 9h 55min 22.812022s random time.
Nov 16 22:39:01 ip-172-31-23-199 CRON[6971]: (root) CMD (  [ -x /usr/lib/php/sessionclean ] && /usr/lib/php/sessionclean)
Nov 16 22:40:01 ip-172-31-23-199 CRON[7026]: (smmsp) CMD (test -x /etc/init.d/sendmail && test -x /usr/share/sendmail/sendmail && test -x /usr/lib/sm.bin/sendmail && /usr/share/sendmail/sendmail cron-msp)
Nov 16 23:00:01 ip-172-31-23-199 CRON[7100]: (smmsp) CMD (test -x /etc/init.d/sendmail && test -x /usr/share/sendmail/sendmail && test -x /usr/lib/sm.bin/sendmail && /usr/share/sendmail/sendmail cron-msp)
Nov 16 23:04:48 ip-172-31-23-199 dhclient[938]: DHCPREQUEST of 172.31.23.199 on eth0 to 172.31.16.1 port 67 (xid=0x27e00d11)
Nov 16 23:04:48 ip-172-31-23-199 dhclient[938]: DHCPACK of 172.31.23.199 from 172.31.16.1
Nov 16 23:04:48 ip-172-31-23-199 dhclient[938]: bound to 172.31.23.199 -- renewal in 1360 seconds.
Nov 16 23:09:01 ip-172-31-23-199 CRON[7169]: (root) CMD (  [ -x /usr/lib/php/sessionclean ] && /usr/lib/php/sessionclean)
Nov 16 23:17:02 ip-172-31-23-199 CRON[7235]: (root) CMD (   cd / && run-parts --report /etc/cron.hourly)
Nov 16 23:20:01 ip-172-31-23-199 CRON[7252]: (smmsp) CMD (test -x /etc/init.d/sendmail && test -x /usr/share/sendmail/sendmail && test -x /usr/lib/sm.bin/sendmail && /usr/share/sendmail/sendmail cron-msp)
Nov 16 23:27:28 ip-172-31-23-199 dhclient[938]: DHCPREQUEST of 172.31.23.199 on eth0 to 172.31.16.1 port 67 (xid=0x27e00d11)
Nov 16 23:27:28 ip-172-31-23-199 dhclient[938]: DHCPACK of 172.31.23.199 from 172.31.16.1
Nov 16 23:27:29 ip-172-31-23-199 dhclient[938]: bound to 172.31.23.199 -- renewal in 1690 seconds.
Nov 16 23:39:01 ip-172-31-23-199 CRON[7324]: (root) CMD (  [ -x /usr/lib/php/sessionclean ] && /usr/lib/php/sessionclean)
Nov 16 23:40:01 ip-172-31-23-199 CRON[7379]: (smmsp) CMD (test -x /etc/init.d/sendmail && test -x /usr/share/sendmail/sendmail && test -x /usr/lib/sm.bin/sendmail && /usr/share/sendmail/sendmail cron-msp)
Nov 16 23:55:39 ip-172-31-23-199 dhclient[938]: DHCPREQUEST of 172.31.23.199 on eth0 to 172.31.16.1 port 67 (xid=0x27e00d11)
Nov 16 23:55:39 ip-172-31-23-199 dhclient[938]: DHCPACK of 172.31.23.199 from 172.31.16.1
Nov 16 23:55:39 ip-172-31-23-199 dhclient[938]: bound to 172.31.23.199 -- renewal in 1715 seconds.
Nov 17 00:00:01 ip-172-31-23-199 CRON[7461]: (smmsp) CMD (test -x /etc/init.d/sendmail && test -x /usr/share/sendmail/sendmail && test -x /usr/lib/sm.bin/sendmail && /usr/share/sendmail/sendmail cron-msp)
Nov 17 00:09:02 ip-172-31-23-199 CRON[7486]: (root) CMD (  [ -x /usr/lib/php/sessionclean ] && /usr/lib/php/sessionclean)
Nov 17 00:17:01 ip-172-31-23-199 CRON[7543]: (root) CMD (   cd / && run-parts --report /etc/cron.hourly)
Nov 17 00:20:01 ip-172-31-23-199 CRON[7546]: (smmsp) CMD (test -x /etc/init.d/sendmail && test -x /usr/share/sendmail/sendmail && test -x /usr/lib/sm.bin/sendmail && /usr/share/sendmail/sendmail cron-msp)
Nov 17 00:24:14 ip-172-31-23-199 dhclient[938]: DHCPREQUEST of 172.31.23.199 on eth0 to 172.31.16.1 port 67 (xid=0x27e00d11)
Nov 17 00:24:14 ip-172-31-23-199 dhclient[938]: DHCPACK of 172.31.23.199 from 172.31.16.1
Nov 17 00:24:14 ip-172-31-23-199 dhclient[938]: bound to 172.31.23.199 -- renewal in 1795 seconds.
Nov 17 00:39:02 ip-172-31-23-199 CRON[7628]: (root) CMD (  [ -x /usr/lib/php/sessionclean ] && /usr/lib/php/sessionclean)
Nov 17 00:40:02 ip-172-31-23-199 CRON[7683]: (smmsp) CMD (test -x /etc/init.d/sendmail && test -x /usr/share/sendmail/sendmail && test -x /usr/lib/sm.bin/sendmail && /usr/share/sendmail/sendmail cron-msp)
Nov 17 00:54:09 ip-172-31-23-199 dhclient[938]: DHCPREQUEST of 172.31.23.199 on eth0 to 172.31.16.1 port 67 (xid=0x27e00d11)
Nov 17 00:54:09 ip-172-31-23-199 dhclient[938]: DHCPACK of 172.31.23.199 from 172.31.16.1
Nov 17 00:54:10 ip-172-31-23-199 dhclient[938]: bound to 172.31.23.199 -- renewal in 1532 seconds.
Nov 17 01:00:01 ip-172-31-23-199 CRON[7767]: (smmsp) CMD (test -x /etc/init.d/sendmail && test -x /usr/share/sendmail/sendmail && test -x /usr/lib/sm.bin/sendmail && /usr/share/sendmail/sendmail cron-msp)
Nov 17 01:09:02 ip-172-31-23-199 CRON[7838]: (root) CMD (  [ -x /usr/lib/php/sessionclean ] && /usr/lib/php/sessionclean)
Nov 17 01:17:02 ip-172-31-23-199 CRON[7894]: (root) CMD (   cd / && run-parts --report /etc/cron.hourly)
Nov 17 01:17:25 ip-172-31-23-199 stunnel: LOG5[9]: Service [redis] accepted connection from 184.105.139.68:28236
Nov 17 01:17:35 ip-172-31-23-199 stunnel: LOG3[9]: SSL_accept: Peer suddenly disconnected
Nov 17 01:17:35 ip-172-31-23-199 stunnel: LOG5[9]: Connection reset: 0 byte(s) sent to SSL, 0 byte(s) sent to socket
Nov 17 01:19:42 ip-172-31-23-199 dhclient[938]: DHCPREQUEST of 172.31.23.199 on eth0 to 172.31.16.1 port 67 (xid=0x27e00d11)
Nov 17 01:19:42 ip-172-31-23-199 dhclient[938]: DHCPACK of 172.31.23.199 from 172.31.16.1
Nov 17 01:19:42 ip-172-31-23-199 dhclient[938]: bound to 172.31.23.199 -- renewal in 1756 seconds.
Nov 17 01:20:01 ip-172-31-23-199 CRON[7913]: (smmsp) CMD (test -x /etc/init.d/sendmail && test -x /usr/share/sendmail/sendmail && test -x /usr/lib/sm.bin/sendmail && /usr/share/sendmail/sendmail cron-msp)
Nov 17 01:31:16 ip-172-31-23-199 systemd[1]: Starting Cleanup of Temporary Directories...
Nov 17 01:31:16 ip-172-31-23-199 systemd-tmpfiles[7936]: [/usr/lib/tmpfiles.d/var.conf:14] Duplicate line for path "/var/log", ignoring.
Nov 17 01:31:16 ip-172-31-23-199 systemd[1]: Started Cleanup of Temporary Directories.
Nov 17 01:39:01 ip-172-31-23-199 CRON[7943]: (root) CMD (  [ -x /usr/lib/php/sessionclean ] && /usr/lib/php/sessionclean)
Nov 17 01:40:01 ip-172-31-23-199 CRON[8006]: (smmsp) CMD (test -x /etc/init.d/sendmail && test -x /usr/share/sendmail/sendmail && test -x /usr/lib/sm.bin/sendmail && /usr/share/sendmail/sendmail cron-msp)
Nov 17 01:48:58 ip-172-31-23-199 dhclient[938]: DHCPREQUEST of 172.31.23.199 on eth0 to 172.31.16.1 port 67 (xid=0x27e00d11)
Nov 17 01:48:58 ip-172-31-23-199 dhclient[938]: DHCPACK of 172.31.23.199 from 172.31.16.1
Nov 17 01:48:59 ip-172-31-23-199 dhclient[938]: bound to 172.31.23.199 -- renewal in 1453 seconds.
Nov 17 02:00:01 ip-172-31-23-199 CRON[8076]: (smmsp) CMD (test -x /etc/init.d/sendmail && test -x /usr/share/sendmail/sendmail && test -x /usr/lib/sm.bin/sendmail && /usr/share/sendmail/sendmail cron-msp)
Nov 17 02:09:01 ip-172-31-23-199 CRON[8099]: (root) CMD (  [ -x /usr/lib/php/sessionclean ] && /usr/lib/php/sessionclean)
Nov 17 02:13:12 ip-172-31-23-199 dhclient[938]: DHCPREQUEST of 172.31.23.199 on eth0 to 172.31.16.1 port 67 (xid=0x27e00d11)
Nov 17 02:13:12 ip-172-31-23-199 dhclient[938]: DHCPACK of 172.31.23.199 from 172.31.16.1
Nov 17 02:13:13 ip-172-31-23-199 dhclient[938]: bound to 172.31.23.199 -- renewal in 1573 seconds.
Nov 17 02:17:02 ip-172-31-23-199 CRON[8169]: (root) CMD (   cd / && run-parts --report /etc/cron.hourly)
Nov 17 02:20:01 ip-172-31-23-199 CRON[8172]: (smmsp) CMD (test -x /etc/init.d/sendmail && test -x /usr/share/sendmail/sendmail && test -x /usr/lib/sm.bin/sendmail && /usr/share/sendmail/sendmail cron-msp)
Nov 17 02:39:02 ip-172-31-23-199 CRON[8196]: (root) CMD (  [ -x /usr/lib/php/sessionclean ] && /usr/lib/php/sessionclean)
Nov 17 02:39:26 ip-172-31-23-199 dhclient[938]: DHCPREQUEST of 172.31.23.199 on eth0 to 172.31.16.1 port 67 (xid=0x27e00d11)
Nov 17 02:39:26 ip-172-31-23-199 dhclient[938]: DHCPACK of 172.31.23.199 from 172.31.16.1
Nov 17 02:39:26 ip-172-31-23-199 dhclient[938]: bound to 172.31.23.199 -- renewal in 1485 seconds.
Nov 17 02:40:01 ip-172-31-23-199 CRON[8265]: (smmsp) CMD (test -x /etc/init.d/sendmail && test -x /usr/share/sendmail/sendmail && test -x /usr/lib/sm.bin/sendmail && /usr/share/sendmail/sendmail cron-msp)
Nov 17 03:00:01 ip-172-31-23-199 CRON[8289]: (smmsp) CMD (test -x /etc/init.d/sendmail && test -x /usr/share/sendmail/sendmail && test -x /usr/lib/sm.bin/sendmail && /usr/share/sendmail/sendmail cron-msp)
Nov 17 03:04:11 ip-172-31-23-199 dhclient[938]: DHCPREQUEST of 172.31.23.199 on eth0 to 172.31.16.1 port 67 (xid=0x27e00d11)
Nov 17 03:04:11 ip-172-31-23-199 dhclient[938]: DHCPACK of 172.31.23.199 from 172.31.16.1
Nov 17 03:04:11 ip-172-31-23-199 dhclient[938]: bound to 172.31.23.199 -- renewal in 1432 seconds.
Nov 17 03:09:01 ip-172-31-23-199 CRON[8326]: (root) CMD (  [ -x /usr/lib/php/sessionclean ] && /usr/lib/php/sessionclean)
Nov 17 03:17:01 ip-172-31-23-199 CRON[8382]: (root) CMD (   cd / && run-parts --report /etc/cron.hourly)
Nov 17 03:20:02 ip-172-31-23-199 CRON[8385]: (smmsp) CMD (test -x /etc/init.d/sendmail && test -x /usr/share/sendmail/sendmail && test -x /usr/lib/sm.bin/sendmail && /usr/share/sendmail/sendmail cron-msp)
Nov 17 03:28:03 ip-172-31-23-199 dhclient[938]: DHCPREQUEST of 172.31.23.199 on eth0 to 172.31.16.1 port 67 (xid=0x27e00d11)
Nov 17 03:28:03 ip-172-31-23-199 dhclient[938]: DHCPACK of 172.31.23.199 from 172.31.16.1
Nov 17 03:28:04 ip-172-31-23-199 dhclient[938]: bound to 172.31.23.199 -- renewal in 1412 seconds.
Nov 17 03:39:01 ip-172-31-23-199 CRON[8423]: (root) CMD (  [ -x /usr/lib/php/sessionclean ] && /usr/lib/php/sessionclean)
Nov 17 03:40:01 ip-172-31-23-199 CRON[8478]: (smmsp) CMD (test -x /etc/init.d/sendmail && test -x /usr/share/sendmail/sendmail && test -x /usr/lib/sm.bin/sendmail && /usr/share/sendmail/sendmail cron-msp)
Nov 17 03:51:37 ip-172-31-23-199 dhclient[938]: DHCPREQUEST of 172.31.23.199 on eth0 to 172.31.16.1 port 67 (xid=0x27e00d11)
Nov 17 03:51:37 ip-172-31-23-199 dhclient[938]: DHCPACK of 172.31.23.199 from 172.31.16.1
Nov 17 03:51:37 ip-172-31-23-199 dhclient[938]: bound to 172.31.23.199 -- renewal in 1580 seconds.
Nov 17 03:58:26 ip-172-31-23-199 systemd[1]: snapd.refresh.timer: Adding 4h 36.856477s random time.
Nov 17 04:00:02 ip-172-31-23-199 CRON[8518]: (smmsp) CMD (test -x /etc/init.d/sendmail && test -x /usr/share/sendmail/sendmail && test -x /usr/lib/sm.bin/sendmail && /usr/share/sendmail/sendmail cron-msp)
Nov 17 04:09:01 ip-172-31-23-199 CRON[8541]: (root) CMD (  [ -x /usr/lib/php/sessionclean ] && /usr/lib/php/sessionclean)
Nov 17 04:17:01 ip-172-31-23-199 CRON[8601]: (root) CMD (   cd / && run-parts --report /etc/cron.hourly)
Nov 17 04:17:57 ip-172-31-23-199 dhclient[938]: DHCPREQUEST of 172.31.23.199 on eth0 to 172.31.16.1 port 67 (xid=0x27e00d11)
Nov 17 04:17:57 ip-172-31-23-199 dhclient[938]: DHCPACK of 172.31.23.199 from 172.31.16.1
Nov 17 04:17:57 ip-172-31-23-199 dhclient[938]: bound to 172.31.23.199 -- renewal in 1661 seconds.
Nov 17 04:20:02 ip-172-31-23-199 CRON[8656]: (smmsp) CMD (test -x /etc/init.d/sendmail && test -x /usr/share/sendmail/sendmail && test -x /usr/lib/sm.bin/sendmail && /usr/share/sendmail/sendmail cron-msp)
Nov 17 04:39:01 ip-172-31-23-199 CRON[8912]: (root) CMD (  [ -x /usr/lib/php/sessionclean ] && /usr/lib/php/sessionclean)
Nov 17 04:40:01 ip-172-31-23-199 CRON[8979]: (smmsp) CMD (test -x /etc/init.d/sendmail && test -x /usr/share/sendmail/sendmail && test -x /usr/lib/sm.bin/sendmail && /usr/share/sendmail/sendmail cron-msp)
Nov 17 04:45:39 ip-172-31-23-199 dhclient[938]: DHCPREQUEST of 172.31.23.199 on eth0 to 172.31.16.1 port 67 (xid=0x27e00d11)
Nov 17 04:45:39 ip-172-31-23-199 dhclient[938]: DHCPACK of 172.31.23.199 from 172.31.16.1
Nov 17 04:45:39 ip-172-31-23-199 dhclient[938]: bound to 172.31.23.199 -- renewal in 1522 seconds.
Nov 17 05:00:02 ip-172-31-23-199 CRON[9263]: (smmsp) CMD (test -x /etc/init.d/sendmail && test -x /usr/share/sendmail/sendmail && test -x /usr/lib/sm.bin/sendmail && /usr/share/sendmail/sendmail cron-msp)
Nov 17 05:09:01 ip-172-31-23-199 CRON[9396]: (root) CMD (  [ -x /usr/lib/php/sessionclean ] && /usr/lib/php/sessionclean)
Nov 17 05:11:01 ip-172-31-23-199 dhclient[938]: DHCPREQUEST of 172.31.23.199 on eth0 to 172.31.16.1 port 67 (xid=0x27e00d11)
Nov 17 05:11:01 ip-172-31-23-199 dhclient[938]: DHCPACK of 172.31.23.199 from 172.31.16.1
Nov 17 05:11:01 ip-172-31-23-199 dhclient[938]: bound to 172.31.23.199 -- renewal in 1390 seconds.
Nov 17 05:17:01 ip-172-31-23-199 CRON[9566]: (root) CMD (   cd / && run-parts --report /etc/cron.hourly)
Nov 17 05:20:01 ip-172-31-23-199 CRON[9605]: (smmsp) CMD (test -x /etc/init.d/sendmail && test -x /usr/share/sendmail/sendmail && test -x /usr/lib/sm.bin/sendmail && /usr/share/sendmail/sendmail cron-msp)
Nov 17 05:34:12 ip-172-31-23-199 dhclient[938]: DHCPREQUEST of 172.31.23.199 on eth0 to 172.31.16.1 port 67 (xid=0x27e00d11)
Nov 17 05:34:12 ip-172-31-23-199 dhclient[938]: DHCPACK of 172.31.23.199 from 172.31.16.1
Nov 17 05:34:12 ip-172-31-23-199 dhclient[938]: bound to 172.31.23.199 -- renewal in 1588 seconds.
Nov 17 05:39:01 ip-172-31-23-199 CRON[9878]: (root) CMD (  [ -x /usr/lib/php/sessionclean ] && /usr/lib/php/sessionclean)
Nov 17 05:40:01 ip-172-31-23-199 CRON[9945]: (smmsp) CMD (test -x /etc/init.d/sendmail && test -x /usr/share/sendmail/sendmail && test -x /usr/lib/sm.bin/sendmail && /usr/share/sendmail/sendmail cron-msp)
Nov 17 06:00:02 ip-172-31-23-199 CRON[10213]: (smmsp) CMD (test -x /etc/init.d/sendmail && test -x /usr/share/sendmail/sendmail && test -x /usr/lib/sm.bin/sendmail && /usr/share/sendmail/sendmail cron-msp)
Nov 17 06:00:40 ip-172-31-23-199 dhclient[938]: DHCPREQUEST of 172.31.23.199 on eth0 to 172.31.16.1 port 67 (xid=0x27e00d11)
Nov 17 06:00:40 ip-172-31-23-199 dhclient[938]: DHCPACK of 172.31.23.199 from 172.31.16.1
Nov 17 06:00:41 ip-172-31-23-199 dhclient[938]: bound to 172.31.23.199 -- renewal in 1731 seconds.
Nov 17 06:09:01 ip-172-31-23-199 CRON[10358]: (root) CMD (  [ -x /usr/lib/php/sessionclean ] && /usr/lib/php/sessionclean)
Nov 17 06:17:01 ip-172-31-23-199 CRON[10511]: (root) CMD (   cd / && run-parts --report /etc/cron.hourly)
Nov 17 06:20:01 ip-172-31-23-199 CRON[10550]: (smmsp) CMD (test -x /etc/init.d/sendmail && test -x /usr/share/sendmail/sendmail && test -x /usr/lib/sm.bin/sendmail && /usr/share/sendmail/sendmail cron-msp)
Nov 17 06:25:01 ip-172-31-23-199 CRON[10636]: (root) CMD (test -x /usr/sbin/anacron || ( cd / && run-parts --report /etc/cron.daily ))
Nov 17 06:25:06 ip-172-31-23-199 systemd[1]: Reloading LSB: Apache2 web server.
Nov 17 06:25:06 ip-172-31-23-199 apache2[10726]:  * Reloading Apache httpd web server apache2
Nov 17 06:25:09 ip-172-31-23-199 apache2[10726]:  *
Nov 17 06:25:09 ip-172-31-23-199 systemd[1]: Reloaded LSB: Apache2 web server.
