2016/11/16 06:28:19 [error] 1199#1199: *378 open() "/options/officer-rainbow/bins/mirai.arm7" failed (2: No such file or directory), client: 46.172.91.20, server: localhost, request: "GET /bins/mirai.arm7 HTTP/1.1", host: "54.148.212.131"
2016/11/16 16:26:23 [error] 1199#1199: *388 open() "/options/officer-rainbow/pc/account/prev_join.aspx" failed (2: No such file or directory), client: 13.76.168.42, server: localhost, request: "GET /pc/account/prev_join.aspx HTTP/1.1", host: "md-star.com"
2016/11/16 18:56:05 [error] 1199#1199: *392 open() "/options/officer-rainbow/check_proxy" failed (2: No such file or directory), client: 180.97.106.37, server: localhost, request: "HEAD http://180.163.113.82/check_proxy HTTP/1.1", host: "180.163.113.82"
