[Wed Nov 16 06:25:10.340361 2016] [mpm_prefork:notice] [pid 1459] AH00163: Apache/2.4.18 (Ubuntu) configured -- resuming normal operations
[Wed Nov 16 06:25:10.340393 2016] [core:notice] [pid 1459] AH00094: Command line: '/usr/sbin/apache2'
[Thu Nov 17 06:25:08.666802 2016] [mpm_prefork:notice] [pid 1459] AH00171: Graceful restart requested, doing restart
